{
    "result": [
        {
            "registryID": "6d848925-8709-4692-8ea3-3b2290a2544c",
            "dataUUID": "367769",
            "documentID": "d90346d4-3db1-4274-a071-cd11e83e94da",
            "fieldValue": {
                "app_num": "101023-23-03-20",
                "request_author": "Оразгали Бектас "
            },
            "fieldKey": {
                "app_num": null,
                "request_author": "afcc9fcf-50e4-44eb-b3b3-7eb4ae636364"
            },
            "status": "NO_ROUTE",
            "value": 0.0,
            "fieldCode": null,
            "state": 0
        },
        {
            "registryID": "6d848925-8709-4692-8ea3-3b2290a2544c",
            "dataUUID": "367694",
            "documentID": "d7b79ffd-b801-4955-a24a-9dcbb0f7c68a",
            "fieldValue": {
                "app_num": "100996-22-03-20",
                "request_author": "Оразгали Бектас "
            },
            "fieldKey": {
                "app_num": null,
                "request_author": "afcc9fcf-50e4-44eb-b3b3-7eb4ae636364"
            },
            "status": "NO_ROUTE",
            "value": 0.0,
            "fieldCode": null,
            "state": 0
        },
        {
            "registryID": "6d848925-8709-4692-8ea3-3b2290a2544c",
            "dataUUID": "367426",
            "documentID": "93832e97-b893-4ac4-80b2-890f2c39acfb",
            "fieldValue": {
                "app_num": "100856-16-03-20",
                "request_author": "Қырықбаев Ерлан "
            },
            "fieldKey": {
                "app_num": null,
                "request_author": "80ffbd37-7888-4ba2-bd35-5a2cf426a32f"
            },
            "status": "NO_ROUTE",
            "value": 0.0,
            "fieldCode": null,
            "state": 0
        },
        {
            "registryID": "6d848925-8709-4692-8ea3-3b2290a2544c",
            "dataUUID": "367087",
            "documentID": "f4928770-e49f-4aaf-a2b6-107d0c337782",
            "fieldValue": {
                "app_num": "100653-03-03-20",
                "request_author": "Оразгали Бектас "
            },
            "fieldKey": {
                "app_num": null,
                "request_author": "afcc9fcf-50e4-44eb-b3b3-7eb4ae636364"
            },
            "status": "NO_ROUTE",
            "value": 0.0,
            "fieldCode": null,
            "state": 0
        },
        {
            "registryID": "6d848925-8709-4692-8ea3-3b2290a2544c",
            "dataUUID": "367075",
            "documentID": "2d849e23-5541-414e-af65-b6c584a993d2",
            "fieldValue": {
                "app_num": "100647-03-03-20",
                "request_author": "Оразгали Бектас "
            },
            "fieldKey": {
                "app_num": null,
                "request_author": "afcc9fcf-50e4-44eb-b3b3-7eb4ae636364"
            },
            "status": "NO_ROUTE",
            "value": 0.0,
            "fieldCode": null,
            "state": 0
        },
        {
            "registryID": "6d848925-8709-4692-8ea3-3b2290a2544c",
            "dataUUID": "366765",
            "documentID": "e4c7b204-6d95-4741-aeb3-ac127a7f331d",
            "fieldValue": {
                "app_num": "100482-13-02-20",
                "request_author": "Оразгали Бектас "
            },
            "fieldKey": {
                "app_num": null,
                "request_author": "afcc9fcf-50e4-44eb-b3b3-7eb4ae636364"
            },
            "status": "NO_ROUTE",
            "value": 0.0,
            "fieldCode": null,
            "state": 0
        },
        {
            "registryID": "6d848925-8709-4692-8ea3-3b2290a2544c",
            "dataUUID": "366722",
            "documentID": "ace3476c-7326-4168-b9f3-739fe511d796",
            "fieldValue": {
                "app_num": "100454-08-02-20",
                "request_author": "Кубашев Нұрбол "
            },
            "fieldKey": {
                "app_num": null,
                "request_author": "fa5934f4-93e6-4cad-a4d1-f9f6f679be39"
            },
            "status": "NO_ROUTE",
            "value": 0.0,
            "fieldCode": null,
            "state": 0
        },
        {
            "registryID": "6d848925-8709-4692-8ea3-3b2290a2544c",
            "dataUUID": "366485",
            "documentID": "e281cb64-2a95-4798-8a9b-38bc46acb8c9",
            "fieldValue": {
                "app_num": "100331-25-01-20",
                "request_author": "Жунусов Калкаман "
            },
            "fieldKey": {
                "app_num": null,
                "request_author": "67ee2904-0790-4eb6-9ecc-56b68ea90b4c"
            },
            "status": "NO_ROUTE",
            "value": 0.0,
            "fieldCode": null,
            "state": 0
        },
        {
            "registryID": "6d848925-8709-4692-8ea3-3b2290a2544c",
            "dataUUID": "366410",
            "documentID": "b4ef5eac-8235-4976-b51f-92ab67db3b38",
            "fieldValue": {
                "app_num": "100302-24-01-20",
                "request_author": "Оразгали Бектас "
            },
            "fieldKey": {
                "app_num": null,
                "request_author": "afcc9fcf-50e4-44eb-b3b3-7eb4ae636364"
            },
            "status": "NO_ROUTE",
            "value": 0.0,
            "fieldCode": null,
            "state": 0
        },
        {
            "registryID": "6d848925-8709-4692-8ea3-3b2290a2544c",
            "dataUUID": "366115",
            "documentID": "563917ff-7cf9-421e-910c-4d47515acdef",
            "fieldValue": {
                "app_num": "100202-06-01-20",
                "request_author": "Омаров Бахтияр "
            },
            "fieldKey": {
                "app_num": null,
                "request_author": "7ddddd2f-6e24-4e62-9f46-fe4e05c4bee1"
            },
            "status": "NO_ROUTE",
            "value": 0.0,
            "fieldCode": null,
            "state": 0
        },
        {
            "registryID": "6d848925-8709-4692-8ea3-3b2290a2544c",
            "dataUUID": "366079",
            "documentID": "5e5d8752-4558-40cf-9a98-db6fbb0d0fc5",
            "fieldValue": {
                "app_num": "100181-06-01-20",
                "request_author": "Рамазанов Думан "
            },
            "fieldKey": {
                "app_num": null,
                "request_author": "ee022101-d102-46c5-b33a-d40da74d6948"
            },
            "status": "NO_ROUTE",
            "value": 0.0,
            "fieldCode": null,
            "state": 0
        },
        {
            "registryID": "6d848925-8709-4692-8ea3-3b2290a2544c",
            "dataUUID": "366030",
            "documentID": "a5c341cc-c0f8-4ec3-b2d7-de5c5cf7efe6",
            "fieldValue": {
                "project_name1": "Создание производственного комплекса по переработке бобов сои в пищевом направлении",
                "app_num": "100163-05-01-20",
                "send_date": "2020-01-05",
                "request_author": "Бакашев Асет",
                "regnumber": "KPPF-132-2020-01-05"
            },
            "fieldKey": {
                "project_name1": null,
                "app_num": null,
                "send_date": "2020-01-05 17:21:00",
                "request_author": "8ecbd2d8-32bf-47c7-a5ac-4e0789165a08",
                "regnumber": null
            },
            "status": "STATE_NOT_FINISHED",
            "value": 0.0,
            "fieldCode": null,
            "state": 1
        },
        {
            "registryID": "6d848925-8709-4692-8ea3-3b2290a2544c",
            "dataUUID": "365853",
            "documentID": "a71533a0-e9c8-47dd-9759-12be0052abe3",
            "fieldValue": {
                "app_num": "100091-28-12-19",
                "request_author": "Оразгали Бектас "
            },
            "fieldKey": {
                "app_num": null,
                "request_author": "afcc9fcf-50e4-44eb-b3b3-7eb4ae636364"
            },
            "status": "NO_ROUTE",
            "value": 0.0,
            "fieldCode": null,
            "state": 0
        },
        {
            "registryID": "6d848925-8709-4692-8ea3-3b2290a2544c",
            "dataUUID": "365850",
            "documentID": "580f9feb-650f-4825-8c84-1c9e09247566",
            "fieldValue": {
                "app_num": "100089-28-12-19",
                "request_author": "Оразгали Бектас "
            },
            "fieldKey": {
                "app_num": null,
                "request_author": "afcc9fcf-50e4-44eb-b3b3-7eb4ae636364"
            },
            "status": "NO_ROUTE",
            "value": 0.0,
            "fieldCode": null,
            "state": 0
        },
        {
            "registryID": "6d848925-8709-4692-8ea3-3b2290a2544c",
            "dataUUID": "365651",
            "documentID": "487ec37d-c247-47aa-bd88-9cc9f6670af4",
            "fieldValue": {
                "app_num": "100052-26-12-19",
                "request_author": "Шамиган Алмас "
            },
            "fieldKey": {
                "app_num": null,
                "request_author": "a22bbb87-3f6b-49d9-9ee5-1453d664acb1"
            },
            "status": "NO_ROUTE",
            "value": 0.0,
            "fieldCode": null,
            "state": 0
        },
        {
            "registryID": "6d848925-8709-4692-8ea3-3b2290a2544c",
            "dataUUID": "365172",
            "documentID": "6aceaf38-95da-4c32-9df7-b04ab146f496",
            "fieldValue": {
                "project_name1": "KAMYSAY ATYRAU",
                "app_num": "99851-19-12-19",
                "request_author": "Байтараков Марат",
                "regnumber": ""
            },
            "fieldKey": {
                "project_name1": null,
                "app_num": null,
                "request_author": "18a62138-78b9-4844-a087-c5affe04edb9",
                "regnumber": null
            },
            "status": "NO_ROUTE",
            "value": 0.0,
            "fieldCode": null,
            "state": 0
        },
        {
            "registryID": "6d848925-8709-4692-8ea3-3b2290a2544c",
            "dataUUID": "364965",
            "documentID": "476a6e02-0f0c-4a2c-ad64-0c61339798d7",
            "fieldValue": {
                "app_num": "99758-18-12-19",
                "request_author": "Примбетов Нурсултан "
            },
            "fieldKey": {
                "app_num": null,
                "request_author": "0d1e5246-33a2-4245-a783-4b7508622d5a"
            },
            "status": "NO_ROUTE",
            "value": 0.0,
            "fieldCode": null,
            "state": 0
        },
        {
            "registryID": "6d848925-8709-4692-8ea3-3b2290a2544c",
            "dataUUID": "363680",
            "documentID": "8fe9e5f2-2779-487c-a74e-3e6001bfc221",
            "fieldValue": {
                "app_num": "99321-25-11-19",
                "request_author": "Vasavada Manan "
            },
            "fieldKey": {
                "app_num": null,
                "request_author": "ded932cd-9b93-491a-849b-e2752eeb48d7"
            },
            "status": "NO_ROUTE",
            "value": 0.0,
            "fieldCode": null,
            "state": 0
        },
        {
            "registryID": "6d848925-8709-4692-8ea3-3b2290a2544c",
            "dataUUID": "363677",
            "documentID": "b3682575-9fa5-44a2-9178-5239bae17621",
            "fieldValue": {
                "app_num": "99319-25-11-19",
                "request_author": "Vasavada Manan "
            },
            "fieldKey": {
                "app_num": null,
                "request_author": "ded932cd-9b93-491a-849b-e2752eeb48d7"
            },
            "status": "NO_ROUTE",
            "value": 0.0,
            "fieldCode": null,
            "state": 0
        },
        {
            "registryID": "6d848925-8709-4692-8ea3-3b2290a2544c",
            "dataUUID": "363119",
            "documentID": "0e2053fd-930c-4133-8d22-d723a2917498",
            "fieldValue": {
                "app_num": "99168-14-11-19",
                "request_author": "Vasavada Manan "
            },
            "fieldKey": {
                "app_num": null,
                "request_author": "ded932cd-9b93-491a-849b-e2752eeb48d7"
            },
            "status": "NO_ROUTE",
            "value": 0.0,
            "fieldCode": null,
            "state": 0
        },
        {
            "registryID": "6d848925-8709-4692-8ea3-3b2290a2544c",
            "dataUUID": "363108",
            "documentID": "a29b462c-bccf-44cc-a561-5d7a5680804f",
            "fieldValue": {
                "app_num": "99166-14-11-19",
                "request_author": "Vasavada Manan "
            },
            "fieldKey": {
                "app_num": null,
                "request_author": "ded932cd-9b93-491a-849b-e2752eeb48d7"
            },
            "status": "NO_ROUTE",
            "value": 0.0,
            "fieldCode": null,
            "state": 0
        },
        {
            "registryID": "6d848925-8709-4692-8ea3-3b2290a2544c",
            "dataUUID": "362695",
            "documentID": "f355b6ef-27c1-4f3f-99ba-999a1bc2fcd6",
            "fieldValue": {
                "app_num": "99029-11-11-19",
                "request_author": "Vasavada Manan "
            },
            "fieldKey": {
                "app_num": null,
                "request_author": "ded932cd-9b93-491a-849b-e2752eeb48d7"
            },
            "status": "NO_ROUTE",
            "value": 0.0,
            "fieldCode": null,
            "state": 0
        },
        {
            "registryID": "6d848925-8709-4692-8ea3-3b2290a2544c",
            "dataUUID": "361264",
            "documentID": "2ccaf423-6be5-442e-a5f2-e33ac0ac81e3",
            "fieldValue": {
                "app_num": "98593-28-10-19",
                "request_author": "Tassilov Dauren "
            },
            "fieldKey": {
                "app_num": null,
                "request_author": "a02e53a6-930b-4c6e-87e4-0a931dbc6711"
            },
            "status": "NO_ROUTE",
            "value": 0.0,
            "fieldCode": null,
            "state": 0
        },
        {
            "registryID": "6d848925-8709-4692-8ea3-3b2290a2544c",
            "dataUUID": "360386",
            "documentID": "7744f52a-1087-4f67-a08d-e1a89bfa79fb",
            "fieldValue": {
                "app_num": "98332-21-10-19",
                "request_author": "Носиров Дониер "
            },
            "fieldKey": {
                "app_num": null,
                "request_author": "d73ca80d-bd8b-4c93-9a2e-0555e259f2d2"
            },
            "status": "NO_ROUTE",
            "value": 0.0,
            "fieldCode": null,
            "state": 0
        },
        {
            "registryID": "6d848925-8709-4692-8ea3-3b2290a2544c",
            "dataUUID": "359560",
            "documentID": "df682dbf-13a0-40fb-8272-f2a89e089e7e",
            "fieldValue": {
                "project_name1": "КОМПРЕССОРНЫЕ МАШИНЫ",
                "app_num": "98118-13-10-19",
                "if_zayavitel": "ТОО \"TabanMAK\"",
                "request_author": "Мурзатов Темирхан"
            },
            "fieldKey": {
                "project_name1": null,
                "app_num": null,
                "if_zayavitel": null,
                "request_author": "286db02e-acaa-4981-9875-62ab3038f98c"
            },
            "status": "NO_ROUTE",
            "value": 0.0,
            "fieldCode": null,
            "state": 0
        },
        {
            "registryID": "6d848925-8709-4692-8ea3-3b2290a2544c",
            "dataUUID": "359544",
            "documentID": "daefb4eb-394e-4227-ae24-fcdc1fd2986e",
            "fieldValue": {
                "app_num": "98108-13-10-19",
                "request_author": "Туксикова Мира "
            },
            "fieldKey": {
                "app_num": null,
                "request_author": "58819225-7417-4bc3-9944-38e320b47a59"
            },
            "status": "NO_ROUTE",
            "value": 0.0,
            "fieldCode": null,
            "state": 0
        },
        {
            "registryID": "6d848925-8709-4692-8ea3-3b2290a2544c",
            "dataUUID": "359052",
            "documentID": "9fa977b1-e542-499f-95f2-93a115e32e94",
            "fieldValue": {
                "app_num": "97914-09-10-19",
                "request_author": "Онербаев Айбек "
            },
            "fieldKey": {
                "app_num": null,
                "request_author": "0222c04e-6218-4118-bd7e-35c4a964d4f7"
            },
            "status": "NO_ROUTE",
            "value": 0.0,
            "fieldCode": null,
            "state": 0
        },
        {
            "registryID": "6d848925-8709-4692-8ea3-3b2290a2544c",
            "dataUUID": "356626",
            "documentID": "6b35656b-fa70-4937-b0ee-e03133dc9793",
            "fieldValue": {
                "app_num": "97286-19-09-19",
                "request_author": "Прудников Алексей "
            },
            "fieldKey": {
                "app_num": null,
                "request_author": "2ee85625-1030-4722-a46e-8468268282ba"
            },
            "status": "NO_ROUTE",
            "value": 0.0,
            "fieldCode": null,
            "state": 0
        },
        {
            "registryID": "6d848925-8709-4692-8ea3-3b2290a2544c",
            "dataUUID": "356615",
            "documentID": "c22851a5-2b38-414d-9522-3998fc1e8b6c",
            "fieldValue": {
                "app_num": "97284-19-09-19",
                "request_author": "Прудникова Ольга "
            },
            "fieldKey": {
                "app_num": null,
                "request_author": "c671c486-81c1-4618-9fcc-eaf64dfc3fd6"
            },
            "status": "NO_ROUTE",
            "value": 0.0,
            "fieldCode": null,
            "state": 0
        },
        {
            "registryID": "6d848925-8709-4692-8ea3-3b2290a2544c",
            "dataUUID": "356166",
            "documentID": "6f07032a-e68b-4fb0-bad5-c32ad22528b7",
            "fieldValue": {
                "app_num": "97173-17-09-19",
                "request_author": "Мырзабеков Асхат "
            },
            "fieldKey": {
                "app_num": null,
                "request_author": "0b16b7fa-1ea2-4a3b-98cb-6ed97c18dc2e"
            },
            "status": "NO_ROUTE",
            "value": 0.0,
            "fieldCode": null,
            "state": 0
        },
        {
            "registryID": "6d848925-8709-4692-8ea3-3b2290a2544c",
            "dataUUID": "356083",
            "documentID": "f3664e6f-a230-4ba9-a3b4-66ebbacec299",
            "fieldValue": {
                "app_num": "97130-17-09-19",
                "request_author": "Тлемисов Ержан "
            },
            "fieldKey": {
                "app_num": null,
                "request_author": "991b26f7-1873-4139-9ce8-bcfd351f6542"
            },
            "status": "NO_ROUTE",
            "value": 0.0,
            "fieldCode": null,
            "state": 0
        },
        {
            "registryID": "6d848925-8709-4692-8ea3-3b2290a2544c",
            "dataUUID": "355443",
            "documentID": "d35e256b-ed42-4ae7-8ac6-4344639c9572",
            "fieldValue": {
                "app_num": "96920-12-09-19",
                "request_author": "Кенжетаев Мансур "
            },
            "fieldKey": {
                "app_num": null,
                "request_author": "28e895e4-0885-4d42-9c4f-269a117b62ce"
            },
            "status": "NO_ROUTE",
            "value": 0.0,
            "fieldCode": null,
            "state": 0
        },
        {
            "registryID": "6d848925-8709-4692-8ea3-3b2290a2544c",
            "dataUUID": "354983",
            "documentID": "38ab9d81-9f38-49e3-9f00-f7857fc93f1d",
            "fieldValue": {
                "app_num": "96804-10-09-19",
                "request_author": "Кожагельдина Айдана "
            },
            "fieldKey": {
                "app_num": null,
                "request_author": "16954428-6c05-4b72-8312-8355a56a7d15"
            },
            "status": "NO_ROUTE",
            "value": 0.0,
            "fieldCode": null,
            "state": 0
        },
        {
            "registryID": "6d848925-8709-4692-8ea3-3b2290a2544c",
            "dataUUID": "352337",
            "documentID": "dc6c9cc2-9cb6-4136-901d-c542f1584be5",
            "fieldValue": {
                "app_num": "96107-27-08-19",
                "request_author": "Абраев Жумабек Анатольевич"
            },
            "fieldKey": {
                "app_num": null,
                "request_author": "9e80c5ae-7f05-4b76-94b6-d4d42c279dbd"
            },
            "status": "NO_ROUTE",
            "value": 0.0,
            "fieldCode": null,
            "state": 0
        },
        {
            "registryID": "6d848925-8709-4692-8ea3-3b2290a2544c",
            "dataUUID": "352295",
            "documentID": "92bd0f09-001e-409d-ae4c-2d2121a0b77d",
            "fieldValue": {
                "app_num": "96087-27-08-19",
                "request_author": "Абраев Жумабек Анатольевич"
            },
            "fieldKey": {
                "app_num": null,
                "request_author": "9e80c5ae-7f05-4b76-94b6-d4d42c279dbd"
            },
            "status": "NO_ROUTE",
            "value": 0.0,
            "fieldCode": null,
            "state": 0
        },
        {
            "registryID": "6d848925-8709-4692-8ea3-3b2290a2544c",
            "dataUUID": "349609",
            "documentID": "60023078-dc01-44f9-a6c4-8e075410cfe7",
            "fieldValue": {
                "app_num": "95310-16-08-19",
                "request_author": "Рахимов Руслан "
            },
            "fieldKey": {
                "app_num": null,
                "request_author": "b0e5c3a4-7b2f-4002-85bb-32162fb2abd9"
            },
            "status": "NO_ROUTE",
            "value": 0.0,
            "fieldCode": null,
            "state": 0
        },
        {
            "registryID": "6d848925-8709-4692-8ea3-3b2290a2544c",
            "dataUUID": "349599",
            "documentID": "99381ab0-f628-4b9d-9db6-5cabde54ffaf",
            "fieldValue": {
                "project_name1": "Строительство студенческого общежития",
                "app_num": "95305-16-08-19",
                "if_zayavitel": "ИП Сатмолдина",
                "request_author": "Satmoldina Almira"
            },
            "fieldKey": {
                "project_name1": null,
                "app_num": null,
                "if_zayavitel": null,
                "request_author": "8dbba1f7-8764-46ff-b13d-8d4f334032c3"
            },
            "status": "NO_ROUTE",
            "value": 0.0,
            "fieldCode": null,
            "state": 0
        },
        {
            "registryID": "6d848925-8709-4692-8ea3-3b2290a2544c",
            "dataUUID": "346245",
            "documentID": "ad4f9596-ccd3-433f-af3b-032945a41188",
            "fieldValue": {
                "app_num": "94341-02-08-19",
                "request_author": "Рахимов Ерасыл "
            },
            "fieldKey": {
                "app_num": null,
                "request_author": "1"
            },
            "status": "NO_ROUTE",
            "value": 0.0,
            "fieldCode": null,
            "state": 0
        },
        {
            "registryID": "6d848925-8709-4692-8ea3-3b2290a2544c",
            "dataUUID": "342005",
            "documentID": "00e8bf1a-9b43-44d1-994c-bc8a22c652d4",
            "fieldValue": {
                "app_num": "93113-19-07-19",
                "request_author": "Ким Борис "
            },
            "fieldKey": {
                "app_num": null,
                "request_author": "a86e4c76-a7e5-4ec3-9d5b-0b5d33304447"
            },
            "status": "NO_ROUTE",
            "value": 0.0,
            "fieldCode": null,
            "state": 0
        },
        {
            "registryID": "6d848925-8709-4692-8ea3-3b2290a2544c",
            "dataUUID": "335227",
            "documentID": "2eda8727-84bf-4bea-95c6-8665cefbb9d6",
            "fieldValue": {
                "app_num": "91508-04-07-19",
                "request_author": "Шериязданов Чингиз "
            },
            "fieldKey": {
                "app_num": null,
                "request_author": "bae239a8-8e90-40c8-aff2-122d79866ef5"
            },
            "status": "NO_ROUTE",
            "value": 0.0,
            "fieldCode": null,
            "state": 0
        },
        {
            "registryID": "6d848925-8709-4692-8ea3-3b2290a2544c",
            "dataUUID": "334043",
            "documentID": "94086140-5b77-4f6e-9447-a6dd02ccd7fb",
            "fieldValue": {
                "app_num": "91251-02-07-19",
                "request_author": "Мукашев Марат "
            },
            "fieldKey": {
                "app_num": null,
                "request_author": "b840be42-6efd-442f-b3cb-46a5ac8275f4"
            },
            "status": "NO_ROUTE",
            "value": 0.0,
            "fieldCode": null,
            "state": 0
        },
        {
            "registryID": "6d848925-8709-4692-8ea3-3b2290a2544c",
            "dataUUID": "333225",
            "documentID": "39c92c54-7248-42b9-b0bf-08f28cd00271",
            "fieldValue": {
                "app_num": "91127-01-07-19",
                "request_author": "Тоқсаба Еркебұлан "
            },
            "fieldKey": {
                "app_num": null,
                "request_author": "80c23019-440d-422f-83ea-24c67c1d10af"
            },
            "status": "NO_ROUTE",
            "value": 0.0,
            "fieldCode": null,
            "state": 0
        },
        {
            "registryID": "6d848925-8709-4692-8ea3-3b2290a2544c",
            "dataUUID": "332805",
            "documentID": "cb435ae0-ee9e-4ea9-9994-2ba4960bc42f",
            "fieldValue": {
                "app_num": "91022-29-06-19",
                "request_author": "Камнева Олеся "
            },
            "fieldKey": {
                "app_num": null,
                "request_author": "e3b450a2-5ca9-4846-a752-0e84b61653cc"
            },
            "status": "NO_ROUTE",
            "value": 0.0,
            "fieldCode": null,
            "state": 0
        },
        {
            "registryID": "6d848925-8709-4692-8ea3-3b2290a2544c",
            "dataUUID": "331559",
            "documentID": "3fe27ccc-9ca7-4eed-bc64-0550a5289069",
            "fieldValue": {
                "app_num": "90736-27-06-19",
                "request_author": "Таубаев Ғалымжан "
            },
            "fieldKey": {
                "app_num": null,
                "request_author": "47faa28a-8a0d-4cf6-866f-ef2d17e752d3"
            },
            "status": "NO_ROUTE",
            "value": 0.0,
            "fieldCode": null,
            "state": 0
        },
        {
            "registryID": "6d848925-8709-4692-8ea3-3b2290a2544c",
            "dataUUID": "331556",
            "documentID": "56073166-fdd1-410e-9732-7a9d71b62071",
            "fieldValue": {
                "app_num": "90734-27-06-19",
                "request_author": "Dake Yess "
            },
            "fieldKey": {
                "app_num": null,
                "request_author": "53f3fca8-2b9a-4208-8edc-e586835456a6"
            },
            "status": "NO_ROUTE",
            "value": 0.0,
            "fieldCode": null,
            "state": 0
        },
        {
            "registryID": "6d848925-8709-4692-8ea3-3b2290a2544c",
            "dataUUID": "329322",
            "documentID": "058bb560-d3ab-4e82-9be2-bc7e672fefe8",
            "fieldValue": {
                "app_num": "90379-25-06-19",
                "request_author": "Dzhantleuva Alyona "
            },
            "fieldKey": {
                "app_num": null,
                "request_author": "b82a6816-eed8-46eb-969e-d3e7b5804c93"
            },
            "status": "NO_ROUTE",
            "value": 0.0,
            "fieldCode": null,
            "state": 0
        },
        {
            "registryID": "6d848925-8709-4692-8ea3-3b2290a2544c",
            "dataUUID": "329319",
            "documentID": "064186b8-640d-48d3-a4e5-79a4845b15ec",
            "fieldValue": {
                "app_num": "90377-25-06-19",
                "request_author": "Dzhantleuva Alyona "
            },
            "fieldKey": {
                "app_num": null,
                "request_author": "b82a6816-eed8-46eb-969e-d3e7b5804c93"
            },
            "status": "NO_ROUTE",
            "value": 0.0,
            "fieldCode": null,
            "state": 0
        },
        {
            "registryID": "6d848925-8709-4692-8ea3-3b2290a2544c",
            "dataUUID": "328017",
            "documentID": "57f31207-d660-4b6f-bd25-f0b1bc89f55f",
            "fieldValue": {
                "project_name1": "Новые разработки",
                "app_num": "90247-24-06-19",
                "send_date": "2019-06-25",
                "request_author": "Dzhantleuva Alyona",
                "regnumber": "KPPF-131-2019-06-25"
            },
            "fieldKey": {
                "project_name1": null,
                "app_num": null,
                "send_date": "2019-06-25 12:44:00",
                "request_author": "b82a6816-eed8-46eb-969e-d3e7b5804c93",
                "regnumber": null
            },
            "status": "STATE_NOT_FINISHED",
            "value": 0.0,
            "fieldCode": null,
            "state": 1
        },
        {
            "registryID": "6d848925-8709-4692-8ea3-3b2290a2544c",
            "dataUUID": "318298",
            "documentID": "af0feff9-e192-4f13-9ba9-5c65658b999e",
            "fieldValue": {
                "app_num": "88178-15-06-19",
                "request_author": "Samat Alisher "
            },
            "fieldKey": {
                "app_num": null,
                "request_author": "2a8402f1-d200-4966-b202-1c414642af17"
            },
            "status": "NO_ROUTE",
            "value": 0.0,
            "fieldCode": null,
            "state": 0
        },
        {
            "registryID": "6d848925-8709-4692-8ea3-3b2290a2544c",
            "dataUUID": "311394",
            "documentID": "25686a17-f994-46d9-a64e-093b46aeaeb8",
            "fieldValue": {
                "app_num": "85047-12-06-19",
                "request_author": "Омарбекова Гульдана",
                "regnumber": ""
            },
            "fieldKey": {
                "app_num": null,
                "request_author": "5feaed79-8993-497c-9811-3db6c7f397dd",
                "regnumber": null
            },
            "status": "NO_ROUTE",
            "value": 0.0,
            "fieldCode": null,
            "state": 0
        },
        {
            "registryID": "6d848925-8709-4692-8ea3-3b2290a2544c",
            "dataUUID": "310930",
            "documentID": "4ffeb86d-4ccb-45b7-84c4-3b547cf7fee9",
            "fieldValue": {
                "app_num": "84924-12-06-19",
                "request_author": "ЖУСУПБЕКОВ АМАНГЕЛЬДЫ "
            },
            "fieldKey": {
                "app_num": null,
                "request_author": "602ce808-627b-4c55-a8c0-567640ae6717"
            },
            "status": "NO_ROUTE",
            "value": 0.0,
            "fieldCode": null,
            "state": 0
        },
        {
            "registryID": "6d848925-8709-4692-8ea3-3b2290a2544c",
            "dataUUID": "310927",
            "documentID": "fe5bc70a-aff0-42af-bb27-33e949c903a4",
            "fieldValue": {
                "app_num": "84922-12-06-19",
                "request_author": "ЖУСУПБЕКОВ АМАНГЕЛЬДЫ "
            },
            "fieldKey": {
                "app_num": null,
                "request_author": "602ce808-627b-4c55-a8c0-567640ae6717"
            },
            "status": "NO_ROUTE",
            "value": 0.0,
            "fieldCode": null,
            "state": 0
        },
        {
            "registryID": "6d848925-8709-4692-8ea3-3b2290a2544c",
            "dataUUID": "310788",
            "documentID": "52b3184c-f708-46fe-8732-d7b7a04b182b",
            "fieldValue": {
                "app_num": "84894-11-06-19",
                "request_author": "Умирзаков НУрым",
                "regnumber": ""
            },
            "fieldKey": {
                "app_num": null,
                "request_author": "5c64726d-0c70-4624-9817-570ac2c9bab8",
                "regnumber": null
            },
            "status": "NO_ROUTE",
            "value": 0.0,
            "fieldCode": null,
            "state": 0
        },
        {
            "registryID": "6d848925-8709-4692-8ea3-3b2290a2544c",
            "dataUUID": "310732",
            "documentID": "6f18eb52-73b9-4123-8066-bc39238e36c6",
            "fieldValue": {
                "app_num": "84876-11-06-19",
                "request_author": "Хабибуллин Ермек "
            },
            "fieldKey": {
                "app_num": null,
                "request_author": "429707a1-e2a7-4952-930b-fb04c8d64957"
            },
            "status": "NO_ROUTE",
            "value": 0.0,
            "fieldCode": null,
            "state": 0
        },
        {
            "registryID": "6d848925-8709-4692-8ea3-3b2290a2544c",
            "dataUUID": "310705",
            "documentID": "505b2e9a-522c-49f4-8955-f3d719e0e5b1",
            "fieldValue": {
                "app_num": "84868-11-06-19",
                "request_author": "Данабаев Айдын "
            },
            "fieldKey": {
                "app_num": null,
                "request_author": "d018be67-92ec-462d-8520-9a85bd459c19"
            },
            "status": "NO_ROUTE",
            "value": 0.0,
            "fieldCode": null,
            "state": 0
        },
        {
            "registryID": "6d848925-8709-4692-8ea3-3b2290a2544c",
            "dataUUID": "310594",
            "documentID": "cdf08eed-e97c-4624-b63f-3dc6dc0938ad",
            "fieldValue": {
                "app_num": "84833-11-06-19",
                "request_author": "Примбетов Нурсултан "
            },
            "fieldKey": {
                "app_num": null,
                "request_author": "0d1e5246-33a2-4245-a783-4b7508622d5a"
            },
            "status": "NO_ROUTE",
            "value": 0.0,
            "fieldCode": null,
            "state": 0
        },
        {
            "registryID": "6d848925-8709-4692-8ea3-3b2290a2544c",
            "dataUUID": "310580",
            "documentID": "b29ae53c-dba5-4964-a175-d8e31fe69254",
            "fieldValue": {
                "app_num": "84825-11-06-19",
                "request_author": "Абраев Жумабек Анатольевич"
            },
            "fieldKey": {
                "app_num": null,
                "request_author": "9e80c5ae-7f05-4b76-94b6-d4d42c279dbd"
            },
            "status": "NO_ROUTE",
            "value": 0.0,
            "fieldCode": null,
            "state": 0
        },
        {
            "registryID": "6d848925-8709-4692-8ea3-3b2290a2544c",
            "dataUUID": "300711",
            "documentID": "33f42c9e-80e6-4f48-a447-fb035c43ecc3",
            "fieldValue": {
                "app_num": "75067-06-06-19",
                "request_author": "Абраев Жумабек Анатольевич"
            },
            "fieldKey": {
                "app_num": null,
                "request_author": "9e80c5ae-7f05-4b76-94b6-d4d42c279dbd"
            },
            "status": "NO_ROUTE",
            "value": 0.0,
            "fieldCode": null,
            "state": 0
        },
        {
            "registryID": "6d848925-8709-4692-8ea3-3b2290a2544c",
            "dataUUID": "300708",
            "documentID": "077572d0-9eb4-4e8a-b5c5-e3b3bdfd07b2",
            "fieldValue": {
                "app_num": "75065-06-06-19",
                "request_author": "Абраев Жумабек Анатольевич"
            },
            "fieldKey": {
                "app_num": null,
                "request_author": "9e80c5ae-7f05-4b76-94b6-d4d42c279dbd"
            },
            "status": "NO_ROUTE",
            "value": 0.0,
            "fieldCode": null,
            "state": 0
        },
        {
            "registryID": "6d848925-8709-4692-8ea3-3b2290a2544c",
            "dataUUID": "300036",
            "documentID": "dc746ca8-5075-47e6-89f3-9a04377fd4a4",
            "fieldValue": {
                "app_num": "74741-29-05-19",
                "request_author": "Рудев Илья Юрьевич"
            },
            "fieldKey": {
                "app_num": null,
                "request_author": "b9de3578-b585-46ab-bc1c-0730f1648eba"
            },
            "status": "NO_ROUTE",
            "value": 0.0,
            "fieldCode": null,
            "state": 0
        },
        {
            "registryID": "6d848925-8709-4692-8ea3-3b2290a2544c",
            "dataUUID": "299313",
            "documentID": "ce9b4903-3778-433f-ada1-dc7f85326edf",
            "fieldValue": {
                "app_num": "74403-22-05-19",
                "request_author": "Рудев Илья Юрьевич"
            },
            "fieldKey": {
                "app_num": null,
                "request_author": "b9de3578-b585-46ab-bc1c-0730f1648eba"
            },
            "status": "NO_ROUTE",
            "value": 0.0,
            "fieldCode": null,
            "state": 0
        },
        {
            "registryID": "6d848925-8709-4692-8ea3-3b2290a2544c",
            "dataUUID": "299061",
            "documentID": "291afb61-79f9-427a-9370-e1cdabfa6016",
            "fieldValue": {
                "app_num": "74274-15-05-19",
                "request_author": "Рудев Илья Юрьевич"
            },
            "fieldKey": {
                "app_num": null,
                "request_author": "b9de3578-b585-46ab-bc1c-0730f1648eba"
            },
            "status": "NO_ROUTE",
            "value": 0.0,
            "fieldCode": null,
            "state": 0
        },
        {
            "registryID": "6d848925-8709-4692-8ea3-3b2290a2544c",
            "dataUUID": "298215",
            "documentID": "847373bc-ae8a-4f7a-ae77-6c7b4b76c959",
            "fieldValue": {
                "app_num": "73908-26-04-19",
                "request_author": "Сагитов Данияр "
            },
            "fieldKey": {
                "app_num": null,
                "request_author": "cc5bb975-2ccf-4776-9815-820269f0ec09"
            },
            "status": "NO_ROUTE",
            "value": 0.0,
            "fieldCode": null,
            "state": 0
        },
        {
            "registryID": "6d848925-8709-4692-8ea3-3b2290a2544c",
            "dataUUID": "297914",
            "documentID": "2807b773-9a07-4034-a093-3a28dba21b43",
            "fieldValue": {
                "app_num": "73778-23-04-19",
                "request_author": "Курманбаев Амидулла "
            },
            "fieldKey": {
                "app_num": null,
                "request_author": "5dc151e6-13c0-48d1-b877-ebfffeabf996"
            },
            "status": "NO_ROUTE",
            "value": 0.0,
            "fieldCode": null,
            "state": 0
        },
        {
            "registryID": "6d848925-8709-4692-8ea3-3b2290a2544c",
            "dataUUID": "297848",
            "documentID": "8b4daadc-f675-49ca-b9e9-c31ab181506b",
            "fieldValue": {
                "app_num": "73750-23-04-19",
                "request_author": "Батараев Расим"
            },
            "fieldKey": {
                "app_num": null,
                "request_author": "1598a5db-784a-4a11-a9ec-be1027dbfde5"
            },
            "status": "NO_ROUTE",
            "value": 0.0,
            "fieldCode": null,
            "state": 0
        },
        {
            "registryID": "6d848925-8709-4692-8ea3-3b2290a2544c",
            "dataUUID": "297711",
            "documentID": "ad238be1-5ca7-44f8-b75f-bf8e187cdf97",
            "fieldValue": {
                "app_num": "73712-22-04-19",
                "request_author": "Мищенко Мария "
            },
            "fieldKey": {
                "app_num": null,
                "request_author": "47ff762f-f9de-46d4-8741-0646063bbb2c"
            },
            "status": "NO_ROUTE",
            "value": 0.0,
            "fieldCode": null,
            "state": 0
        },
        {
            "registryID": "6d848925-8709-4692-8ea3-3b2290a2544c",
            "dataUUID": "297563",
            "documentID": "9054e2e8-90aa-4c96-aa75-b77e154d2f3a",
            "fieldValue": {
                "app_num": "73652-18-04-19",
                "request_author": "Смирнова-Воронцова Александра "
            },
            "fieldKey": {
                "app_num": null,
                "request_author": "626ae057-9e25-4a0a-a444-7aef2dae827d"
            },
            "status": "NO_ROUTE",
            "value": 0.0,
            "fieldCode": null,
            "state": 0
        },
        {
            "registryID": "6d848925-8709-4692-8ea3-3b2290a2544c",
            "dataUUID": "296976",
            "documentID": "5e2433f7-cc4e-4086-b5f2-7b75e6e705ae",
            "fieldValue": {
                "app_num": "73350-12-04-19",
                "request_author": "Yeldar Nurpeissov "
            },
            "fieldKey": {
                "app_num": null,
                "request_author": "4753803d-0c2c-4dec-b6f3-966547f779b9"
            },
            "status": "NO_ROUTE",
            "value": 0.0,
            "fieldCode": null,
            "state": 0
        },
        {
            "registryID": "6d848925-8709-4692-8ea3-3b2290a2544c",
            "dataUUID": "296540",
            "documentID": "962ad6c2-736f-436a-9311-add98c329a0c",
            "fieldValue": {
                "app_num": "73156-05-04-19",
                "request_author": "Абраев Жумабек Анатольевич"
            },
            "fieldKey": {
                "app_num": null,
                "request_author": "9e80c5ae-7f05-4b76-94b6-d4d42c279dbd"
            },
            "status": "NO_ROUTE",
            "value": 0.0,
            "fieldCode": null,
            "state": 0
        },
        {
            "registryID": "6d848925-8709-4692-8ea3-3b2290a2544c",
            "dataUUID": "296151",
            "documentID": "6af4d443-4917-42ba-881c-a78df10169e4",
            "fieldValue": {
                "app_num": "73014-02-04-19",
                "request_author": "Мукашев Тимур "
            },
            "fieldKey": {
                "app_num": null,
                "request_author": "40d48111-d1de-4091-91b7-9d5822d13144"
            },
            "status": "NO_ROUTE",
            "value": 0.0,
            "fieldCode": null,
            "state": 0
        },
        {
            "registryID": "6d848925-8709-4692-8ea3-3b2290a2544c",
            "dataUUID": "296127",
            "documentID": "ff108c09-1cfc-4bf0-9ee1-2ad536012924",
            "fieldValue": {
                "project_name1": "",
                "app_num": "73000-02-04-19",
                "request_author": "qwe qwe"
            },
            "fieldKey": {
                "project_name1": null,
                "app_num": null,
                "request_author": "3ce8460b-4a73-43f4-9f97-96770e29318e"
            },
            "status": "NO_ROUTE",
            "value": 0.0,
            "fieldCode": null,
            "state": 0
        }
    ],
    "recordsCount": 71
}