{
    "uuid": "359052",
    "oldUuid": "f425d56c-58c7-48a9-884b-f91f59ab4b4c",
    "version": 2,
    "form": "fbc9a532-88f9-420a-8ce3-5b634d1f15b0",
    "formVersion": 2,
    "modified": "2019-10-09 08:57:44.0",
    "nodeUUID": "90279330-ea40-11e9-a87d-00505602002b",
    "data": [
        {
            "id": "e_z",
            "type": "label",
            "label": "e_Z"
        },
        {
            "id": "app",
            "type": "textbox"
        },
        {
            "id": "cmp-6sbpnp",
            "type": "label",
            "label": "Номер заявки: "
        },
        {
            "id": "app_num",
            "type": "counter",
            "value": "97914-09-10-19"
        },
        {
            "id": "label-aknjox",
            "type": "label",
            "label": "Регистрационный номер:"
        },
        {
            "id": "regnumber",
            "type": "textbox"
        },
        {
            "id": "cmp-42hgye",
            "type": "label",
            "label": "Дата подачи заявки:"
        },
        {
            "id": "request_date_start",
            "type": "date"
        },
        {
            "id": "cmp-t51fty",
            "type": "label",
            "label": "Дата отправки заявки:"
        },
        {
            "id": "send_date",
            "type": "date"
        },
        {
            "id": "label-sd7o83",
            "type": "label",
            "label": "Автор заявки:"
        },
        {
            "id": "request_author",
            "type": "entity",
            "value": "Онербаев Айбек ",
            "key": "0222c04e-6218-4118-bd7e-35c4a964d4f7"
        },
        {
            "id": "label-fg5cbe",
            "type": "label",
            "label": "  "
        },
        {
            "id": "label_stats",
            "type": "label",
            "label": "Статус заявки:"
        },
        {
            "id": "refuse_desicion_status",
            "type": "listbox",
            "value": "Черновик",
            "key": "0"
        },
        {
            "id": "label-y2kgsw",
            "type": "label",
            "label": "Дополнительный статус"
        },
        {
            "id": "add_status",
            "type": "listbox",
            "value": "На исполнении",
            "key": "1"
        },
        {
            "id": "label-fg5cbe_copy1",
            "type": "label",
            "label": "  "
        },
        {
            "id": "label-5ouoqd",
            "type": "label",
            "label": " "
        },
        {
            "id": "h1",
            "type": "label",
            "label": "Информация о заявителе"
        },
        {
            "id": "label-ps9aiw",
            "type": "label",
            "label": "Тип заявителя"
        },
        {
            "id": "type_author",
            "type": "listbox",
            "value": "< Выбрать >",
            "key": "0"
        },
        {
            "id": "h2-1",
            "type": "label",
            "label": "Данные юридического лица"
        },
        {
            "id": "if_zayavitel",
            "type": "textbox"
        },
        {
            "id": "label-79m7xk",
            "type": "label",
            "label": "Страна регистрации юридического лица:"
        },
        {
            "id": "listbox-0x7wy8",
            "type": "listbox",
            "value": "Казахстан",
            "key": "398"
        },
        {
            "id": "bin_label",
            "type": "label",
            "label": "БИН"
        },
        {
            "id": "bin_ul",
            "type": "textbox",
            "value": "____________"
        },
        {
            "id": "label-79m7xk_copy2",
            "type": "label",
            "label": "Полное наименование:"
        },
        {
            "id": "name_urlic",
            "type": "textbox"
        },
        {
            "id": "label-79m7xk_copy3",
            "type": "label",
            "label": "ФИО представителя:"
        },
        {
            "id": "FIO_pred_ul",
            "type": "textbox"
        },
        {
            "id": "label-79m7xk_copy4",
            "type": "label",
            "label": "Должность представителя:"
        },
        {
            "id": "dolzhnost_ul",
            "type": "textbox"
        },
        {
            "id": "label-79m7xk_copy5",
            "type": "label",
            "label": "Адресные сведения"
        },
        {
            "id": "label-79m7xk_copy6",
            "type": "label",
            "label": "Адрес"
        },
        {
            "id": "adress_ul",
            "type": "textarea"
        },
        {
            "id": "label-79m7xk_copy7",
            "type": "label",
            "label": "Номер мобильного телефона"
        },
        {
            "id": "mobile",
            "type": "textbox",
            "value": "+7 (___) ___-__-__"
        },
        {
            "id": "label-79m7xk_copy8",
            "type": "label",
            "label": "Номера других телефонов"
        },
        {
            "id": "mobile2_ul",
            "type": "textarea"
        },
        {
            "id": "label-79m7xk_copy1",
            "type": "label",
            "label": "Номера факсов"
        },
        {
            "id": "fax_ul",
            "type": "textarea"
        },
        {
            "id": "label-79m7xk_copy9",
            "type": "label",
            "label": "Web-сайт"
        },
        {
            "id": "website_ul",
            "type": "textbox"
        },
        {
            "id": "h2-2",
            "type": "label",
            "label": "Данные физического лица"
        },
        {
            "id": "label-otimc9",
            "type": "label",
            "label": "Гражданство"
        },
        {
            "id": "sitizen_fl",
            "type": "listbox",
            "value": "Казахстан",
            "key": "398"
        },
        {
            "id": "iin_label",
            "type": "label",
            "label": "ИИН:"
        },
        {
            "id": "iin_fl",
            "type": "textbox"
        },
        {
            "id": "label-kjfj2l",
            "type": "label",
            "label": "Фамилия:"
        },
        {
            "id": "lastname_fl",
            "type": "textbox"
        },
        {
            "id": "label-kjfj2l_copy1",
            "type": "label",
            "label": "Имя:"
        },
        {
            "id": "name_fl",
            "type": "textbox"
        },
        {
            "id": "label-kjfj2l_copy2",
            "type": "label",
            "label": "Отчество:"
        },
        {
            "id": "patron_fl",
            "type": "textbox"
        },
        {
            "id": "label-79m7xk_copy10",
            "type": "label",
            "label": "Адресные сведения"
        },
        {
            "id": "label-79m7xk_copy11",
            "type": "label",
            "label": "Адрес"
        },
        {
            "id": "adress_fl",
            "type": "textarea"
        },
        {
            "id": "label-79m7xk_copy12",
            "type": "label",
            "label": "Номер мобильного телефона"
        },
        {
            "id": "mobile_fl",
            "type": "textbox",
            "value": "+7 (___) ___-__-__"
        },
        {
            "id": "label-79m7xk_copy13",
            "type": "label",
            "label": "Номера других телефонов"
        },
        {
            "id": "mobile2_fl",
            "type": "textarea"
        },
        {
            "id": "label-79m7xk_copy14",
            "type": "label",
            "label": "Номера факсов"
        },
        {
            "id": "fax_fl",
            "type": "textarea"
        },
        {
            "id": "label-79m7xk_copy15",
            "type": "label",
            "label": "Web-сайт"
        },
        {
            "id": "website_fl",
            "type": "textbox"
        },
        {
            "id": "h2-3",
            "type": "label",
            "label": "Данные индивидуального предпринимателя"
        },
        {
            "id": "label-otimc9_copy1",
            "type": "label",
            "label": "Страна регистрации ИП"
        },
        {
            "id": "sitizen_fl_copy1",
            "type": "listbox",
            "value": "Казахстан",
            "key": "398"
        },
        {
            "id": "label-le8nl1",
            "type": "label",
            "label": "Наименование ИП:"
        },
        {
            "id": "name_ip",
            "type": "textbox"
        },
        {
            "id": "iin_label_ip",
            "type": "label",
            "label": "ИИН:"
        },
        {
            "id": "iin_ip",
            "type": "textbox",
            "value": "____________"
        },
        {
            "id": "label-adozc2",
            "type": "label",
            "label": "ФИО представителя"
        },
        {
            "id": "FIO_pred_ip",
            "type": "textbox"
        },
        {
            "id": "label-uxrjto",
            "type": "label",
            "label": "Должность представителя"
        },
        {
            "id": "dolzhnost_ip",
            "type": "textbox"
        },
        {
            "id": "label-79m7xk_copy16",
            "type": "label",
            "label": "Адресные сведения"
        },
        {
            "id": "label-79m7xk_copy21",
            "type": "label",
            "label": "Адрес"
        },
        {
            "id": "adress_ip",
            "type": "textarea"
        },
        {
            "id": "label-79m7xk_copy20",
            "type": "label",
            "label": "Номер мобильного телефона"
        },
        {
            "id": "mobile_ip",
            "type": "textbox",
            "value": "+7 (___) ___-__-__"
        },
        {
            "id": "label-79m7xk_copy19",
            "type": "label",
            "label": "Номера других телефонов"
        },
        {
            "id": "mobile2_ip",
            "type": "textarea"
        },
        {
            "id": "label-79m7xk_copy18",
            "type": "label",
            "label": "Номера факсов"
        },
        {
            "id": "fax_ip",
            "type": "textarea"
        },
        {
            "id": "label-79m7xk_copy17",
            "type": "label",
            "label": "Web-сайт"
        },
        {
            "id": "website_ip",
            "type": "textbox"
        },
        {
            "id": "h3",
            "type": "label",
            "label": "Данные о проекте"
        },
        {
            "id": "label-fgrk69",
            "type": "label",
            "label": "Наименование проекта"
        },
        {
            "id": "project_name1",
            "type": "textbox"
        },
        {
            "id": "label-hsu62t",
            "type": "label",
            "label": "Цель проекта"
        },
        {
            "id": "project_purpose",
            "type": "listbox",
            "value": "Создание эффективной транспортно-логистической инфраструктуры",
            "key": "1"
        },
        {
            "id": "project_purpose_other_label",
            "type": "label",
            "label": "Цель проекта (другое)"
        },
        {
            "id": "project_purpose_other",
            "type": "textbox"
        },
        {
            "id": "label-bz8sdw",
            "type": "label",
            "label": "Дата начала реализации проекта"
        },
        {
            "id": "project_date_start",
            "type": "date"
        },
        {
            "id": "label-bz8sdw_copy2",
            "type": "label",
            "label": "Дата окончания реализации проекта"
        },
        {
            "id": "project_date_end",
            "type": "date"
        },
        {
            "id": "label-bz8sdw_copy1",
            "type": "label",
            "label": "Дата ввода в эксплуатацию проекта (год)"
        },
        {
            "id": "expl_date",
            "type": "textbox"
        },
        {
            "id": "label-bz8sdw_copy4",
            "type": "label",
            "label": "Показать приоритетные отрасли в рамках Государственной программы индустриально-инновационного развития Республики Казахстан на 2015–2019 годы "
        },
        {
            "id": "check-8jcfp9",
            "type": "check"
        },
        {
            "id": "gpiir_label",
            "type": "label",
            "label": "Отрасль проекта в рамках ГПИИР"
        },
        {
            "id": "gpiir",
            "type": "listbox",
            "value": "Горнорудное машиностроение",
            "key": "01"
        },
        {
            "id": "oked_label",
            "type": "label",
            "label": "Отрасль проекта по ОКЭД  (1)"
        },
        {
            "id": "oked1",
            "type": "listbox",
            "value": "Горнодобывающая промышленность",
            "key": "01"
        },
        {
            "id": "oked2",
            "type": "listbox",
            "value": "Производство продуктов питания и напитков",
            "key": "021"
        },
        {
            "id": "oked3",
            "type": "listbox",
            "value": "Производство продуктов мукомольной промышленности, крахмалов и крахмальных продуктов",
            "key": "02106"
        },
        {
            "id": "oked4",
            "type": "listbox",
            "value": "",
            "key": "022011"
        },
        {
            "id": "other_label",
            "type": "label",
            "label": "Иное"
        },
        {
            "id": "other",
            "type": "textbox"
        },
        {
            "id": "label-bz8sdw_copy5",
            "type": "label",
            "label": " 1  - («АО «KPPF» не финансирует отрасли производства алкоголя, наркотических и психотропных веществ, табачных изделий, горнодобывающую и нефтедобывающую отрасли.»)"
        },
        {
            "id": "h4",
            "type": "label",
            "label": "Информация о конечной услуге/продукции"
        },
        {
            "id": "table-4",
            "type": "appendable_table",
            "data": [
                {
                    "id": "label-iptgix-b1",
                    "type": "label",
                    "label": "Наименование конечной услуги/продукции"
                },
                {
                    "id": "product_name-b1",
                    "type": "textbox"
                },
                {
                    "id": "label-f9a635-b1",
                    "type": "label",
                    "label": "Производственные мощности в натуральном выражении в год"
                },
                {
                    "id": "label-93qws7-b1",
                    "type": "label",
                    "label": "Количество"
                },
                {
                    "id": "powers-b1",
                    "type": "numericinput"
                },
                {
                    "id": "powers_ed-b1",
                    "type": "textbox"
                },
                {
                    "id": "label-3jqpjy-b1",
                    "type": "label",
                    "label": "Ед.изм"
                },
                {
                    "id": "label-71ig82-b1",
                    "type": "label",
                    "label": "Объем услуг в денежном выражении за год"
                },
                {
                    "id": "service_volume-b1",
                    "type": "numericinput"
                },
                {
                    "id": "label-djspzn-b1",
                    "type": "label",
                    "label": "млн.тг."
                }
            ]
        },
        {
            "id": "h5",
            "type": "label",
            "label": "Дополнительная информация о проекте"
        },
        {
            "id": "label-ar4sdf",
            "type": "label",
            "label": "Определено ли место реализации инвестируемого проекта"
        },
        {
            "id": "place_ch",
            "type": "listbox",
            "value": "Нет",
            "key": "1"
        },
        {
            "id": "region_label",
            "type": "label",
            "label": "Регион"
        },
        {
            "id": "region",
            "type": "listbox",
            "value": "Акмолинская область",
            "key": "1"
        },
        {
            "id": "place_label",
            "type": "label",
            "label": "Место реализации инвестируемого проекта"
        },
        {
            "id": "place",
            "type": "textbox"
        },
        {
            "id": "infrastructure_avail_label",
            "type": "label",
            "label": "Наличие инфраструктуры"
        },
        {
            "id": "infrastructure_avail",
            "type": "listbox",
            "value": "Нет",
            "key": "1"
        },
        {
            "id": "table-5-2",
            "type": "appendable_table",
            "data": [
                {
                    "id": "infrastructure_need_label-b1",
                    "type": "label",
                    "label": "Потребность инфраструктуры"
                },
                {
                    "id": "infrastructure_need-b1",
                    "type": "listbox",
                    "value": "Строительство и/или ремонт железнодорожных путей",
                    "key": "01"
                }
            ]
        },
        {
            "id": "label-ar4sdf_copy5",
            "type": "label",
            "label": "Планируется ли реализация проекта на территории специальной экономической зоны"
        },
        {
            "id": "sez_need",
            "type": "listbox",
            "value": "Нет",
            "key": "1"
        },
        {
            "id": "label-ar4sdf_copy6",
            "type": "label",
            "label": "Планируется ли реализация проекта на территории индустриальной зоны"
        },
        {
            "id": "industr_zona",
            "type": "listbox",
            "value": "Нет",
            "key": "1"
        },
        {
            "id": "sez_label",
            "type": "label",
            "label": "Специальная экономическая зона"
        },
        {
            "id": "sez",
            "type": "listbox",
            "value": " «Астана – Новый город» 2002-2027",
            "key": "1"
        },
        {
            "id": "square_label",
            "type": "label",
            "label": "Площадь земельного участка (га)"
        },
        {
            "id": "square",
            "type": "numericinput"
        },
        {
            "id": "iz_region_label",
            "type": "label",
            "label": "Регион"
        },
        {
            "id": "iz_region",
            "type": "listbox",
            "value": "Южно-Казахстанская область",
            "key": "1"
        },
        {
            "id": "iz_label",
            "type": "label",
            "label": "Индустриальная зона"
        },
        {
            "id": "iz",
            "type": "listbox",
            "value": "Оңтүстік",
            "key": "11"
        },
        {
            "id": "square_iz_label",
            "type": "label",
            "label": "Площадь земельного участка (га)"
        },
        {
            "id": "square_iz",
            "type": "numericinput"
        },
        {
            "id": "label-j8kdro",
            "type": "label",
            "label": "Стоимость проекта, млн. тг."
        },
        {
            "id": "project_cost",
            "type": "textbox"
        },
        {
            "id": "label-j8kdro_copy1",
            "type": "label",
            "label": "Выбор услуги"
        },
        {
            "id": "service_choose",
            "type": "listbox",
            "value": "\"Базовый\" пакет - Разработка проектной документации",
            "key": "1"
        },
        {
            "id": "label-j8kdro_copy2",
            "type": "label",
            "label": "Инициатор соглашается с условием необходимости возврата средств, затраченных KPPF на подготовку проекта"
        },
        {
            "id": "initiator_agree",
            "type": "check"
        },
        {
            "id": "label-j8kdro_copy3",
            "type": "label",
            "label": "Инициатор ранее обращался в аналогичные организации"
        },
        {
            "id": "other_organizations",
            "type": "check"
        },
        {
            "id": "label-j8kdro_copy4",
            "type": "label",
            "label": "Подписать соглашение о неразглашении конфиденциальной информации ТОО «Kazakhstan Project Preparation Fund» "
        },
        {
            "id": "nda",
            "type": "listbox",
            "value": "Нет",
            "key": "1"
        },
        {
            "id": "label-7rhkvv",
            "type": "label",
            "label": " "
        },
        {
            "id": "nda_add",
            "type": "label",
            "label": "Вы можете продолжить заполнение заявки или обратиться за консультацией по номеру тел 8(7172)790456"
        },
        {
            "id": "nda_download_label",
            "type": "label",
            "label": "Необходимо скачать приложенный файл, заполнить и подписать его, а после вложить скан-копию подписанного документа в соответствующем разделе заполнения заявки:"
        },
        {
            "id": "nda_download1",
            "type": "link",
            "value": "http://digital.baiterek.gov.kz/files/NDA_KPPF.zip",
            "key": "NDA KPPF; false"
        },
        {
            "id": "h18",
            "type": "label",
            "label": "13 Соглашение о неразглашении конфиденциальной информации"
        },
        {
            "id": "table-doc13",
            "type": "appendable_table",
            "data": [
                {
                    "id": "custom-dlxk61",
                    "type": "custom"
                }
            ]
        },
        {
            "id": "h6",
            "type": "label",
            "label": "Документ, удостоверяющий личность"
        },
        {
            "id": "table-doc1",
            "type": "appendable_table",
            "data": [
                {
                    "id": "custom-dlxk61",
                    "type": "custom"
                }
            ]
        },
        {
            "id": "h7",
            "type": "label",
            "label": "Учредительные документы"
        },
        {
            "id": "table-doc2",
            "type": "appendable_table",
            "data": [
                {
                    "id": "custom-dlxk61",
                    "type": "custom"
                }
            ]
        },
        {
            "id": "h8",
            "type": "label",
            "label": " Справка о государственной регистрации (перерегистрации) юридического лица"
        },
        {
            "id": "table-doc3",
            "type": "appendable_table",
            "data": [
                {
                    "id": "custom-dlxk61",
                    "type": "custom"
                }
            ]
        },
        {
            "id": "h9",
            "type": "label",
            "label": "Легализованная выписка из торгового реестра"
        },
        {
            "id": "table-doc4",
            "type": "appendable_table",
            "data": [
                {
                    "id": "custom-dlxk61",
                    "type": "custom"
                }
            ]
        },
        {
            "id": "h10",
            "type": "label",
            "label": " Свидетельство о государственной регистрации в качестве индивидуального предпринимателя"
        },
        {
            "id": "table-doc5",
            "type": "appendable_table",
            "data": [
                {
                    "id": "custom-dlxk61",
                    "type": "custom"
                }
            ]
        },
        {
            "id": "h11",
            "type": "label",
            "label": "Информация о наличии обращений в аналогичные организации, их заключения"
        },
        {
            "id": "table-doc6",
            "type": "appendable_table",
            "data": [
                {
                    "id": "custom-dlxk61",
                    "type": "custom"
                }
            ]
        },
        {
            "id": "h12",
            "type": "label",
            "label": "Сопроводительное письмо"
        },
        {
            "id": "table-doc7",
            "type": "appendable_table",
            "data": [
                {
                    "id": "custom-dlxk61",
                    "type": "custom"
                }
            ]
        },
        {
            "id": "h13",
            "type": "label",
            "label": " Информация об учредителях Заявителя"
        },
        {
            "id": "table-doc8",
            "type": "appendable_table",
            "data": [
                {
                    "id": "custom-dlxk61",
                    "type": "custom"
                }
            ]
        },
        {
            "id": "h14",
            "type": "label",
            "label": "Финансовая отчётность"
        },
        {
            "id": "table-doc9",
            "type": "appendable_table",
            "data": [
                {
                    "id": "custom-dlxk61",
                    "type": "custom"
                }
            ]
        },
        {
            "id": "h16",
            "type": "label",
            "label": " Проектная документация"
        },
        {
            "id": "table-doc11",
            "type": "appendable_table",
            "data": [
                {
                    "id": "custom-dlxk61",
                    "type": "custom"
                }
            ]
        },
        {
            "id": "h17",
            "type": "label",
            "label": "12 Финансовая модель"
        },
        {
            "id": "table-doc12",
            "type": "appendable_table",
            "data": [
                {
                    "id": "custom-dlxk61",
                    "type": "custom"
                }
            ]
        },
        {
            "id": "h19",
            "type": "label",
            "label": "Запрошенные документы"
        },
        {
            "id": "table-doc14",
            "type": "appendable_table",
            "data": [
                {
                    "id": "custom-dlxk61",
                    "type": "custom"
                }
            ]
        },
        {
            "id": "h20",
            "type": "label",
            "label": "Проверка комплектности "
        },
        {
            "id": "label-tm0hbl",
            "type": "label",
            "label": "Необходимы дополнительные данные"
        },
        {
            "id": "select_dop_inf",
            "type": "listbox",
            "value": "Нет",
            "key": "1"
        },
        {
            "id": "table_request_1",
            "type": "appendable_table",
            "data": [
                {
                    "id": "label-bbmbi3-b1",
                    "type": "label",
                    "label": "Запрос дополнительных данных"
                },
                {
                    "id": "request_document_1-b1",
                    "type": "custom"
                }
            ]
        },
        {
            "id": "request_author_1",
            "type": "entity",
            "value": "Курмангалиева Алтынай Аскаровна",
            "key": "8d91271a-fa9f-4832-b527-8eb8de16f469",
            "formatVersion": "V1",
            "manualTags": {}
        },
        {
            "id": "label-hbdcms",
            "type": "label",
            "label": "Председатель Правления"
        },
        {
            "id": "pp",
            "type": "entity",
            "value": "(KPPF) Утембаев Адиль Нурланович",
            "key": "08682072-a128-4114-b970-f7f49227c357",
            "formatVersion": "V1",
            "manualTags": {}
        },
        {
            "id": "h20_1",
            "type": "label",
            "label": "Результат переговоров с Инициатором "
        },
        {
            "id": "contact_result",
            "type": "listbox",
            "value": "Продолжить рассмотрение",
            "key": "1"
        },
        {
            "id": "h21",
            "type": "label",
            "label": "Рассмотреть заявку и выбрать тип заключения "
        },
        {
            "id": "label-aki21a",
            "type": "label",
            "label": "Выбор типа заключения"
        },
        {
            "id": "pp_path",
            "type": "listbox",
            "value": "Провести пре-скрининг",
            "key": "1"
        },
        {
            "id": "label-sk70ak",
            "type": "label",
            "label": "Управляющий директор"
        },
        {
            "id": "upr_dir",
            "type": "entity",
            "value": "(KPPF) Абдыгаппаров Асет Мухтарович",
            "key": "0571da24-998e-497e-81f8-3f5363874710",
            "formatVersion": "V1",
            "manualTags": {}
        },
        {
            "id": "h22",
            "type": "label",
            "label": "Руководитель проекта и аналитик"
        },
        {
            "id": "label-78v9lw",
            "type": "label",
            "label": "Руководитель проекта"
        },
        {
            "id": "rp",
            "type": "entity",
            "value": "(KPPF) Журсенбаев Еркен Балахазы-улы",
            "key": "dd31d6d8-0933-4ee4-a3a8-61d0b42788d6",
            "formatVersion": "V1",
            "manualTags": {}
        },
        {
            "id": "label-ja1ixv",
            "type": "label",
            "label": "Аналитик"
        },
        {
            "id": "analitik",
            "type": "entity"
        },
        {
            "id": "h23",
            "type": "label",
            "label": "Пре-скрининг "
        },
        {
            "id": "label-84t7x2",
            "type": "label",
            "label": "Назначить работу аналитику"
        },
        {
            "id": "assing_analitik_pre_scrining",
            "type": "listbox",
            "value": "Да",
            "key": "2"
        },
        {
            "id": "label-id5o97",
            "type": "label",
            "label": "Аналитик"
        },
        {
            "id": "analitik_pre_scrining",
            "type": "entity"
        },
        {
            "id": "label-ct99v8",
            "type": "label",
            "label": "Заключение по пре-скринингу "
        },
        {
            "id": "pre_scrining",
            "type": "custom"
        },
        {
            "id": "h24",
            "type": "label",
            "label": "Мотивированный отказ"
        },
        {
            "id": "label-84t7x2_copy1",
            "type": "label",
            "label": "Назначить работу аналитику"
        },
        {
            "id": "assing_analitik_otkaz_1",
            "type": "listbox",
            "value": "Да",
            "key": "2"
        },
        {
            "id": "label-id5o97_copy1",
            "type": "label",
            "label": "Аналитик"
        },
        {
            "id": "analitik_otkaz_1",
            "type": "entity"
        },
        {
            "id": "label-2vfcvx",
            "type": "label",
            "label": "Мотивированный отказ"
        },
        {
            "id": "otkaz_1",
            "type": "custom"
        },
        {
            "id": "h25",
            "type": "label",
            "label": "Скрининг"
        },
        {
            "id": "azk",
            "type": "label",
            "label": "Автор заключения комплаенс"
        },
        {
            "id": "komplae",
            "type": "check"
        },
        {
            "id": "vneshn_eksp_2",
            "type": "check"
        },
        {
            "id": "conclusion_author_2",
            "type": "entity"
        },
        {
            "id": "table_2",
            "type": "appendable_table",
            "data": [
                {
                    "id": "zk",
                    "type": "label",
                    "label": "ЗАКЛЮЧЕНИЕ КОМПЛАЕНС"
                },
                {
                    "id": "zk-b1",
                    "type": "label",
                    "label": "ЗАКЛЮЧЕНИЕ КОМПЛАЕНС"
                },
                {
                    "id": "conclusion_2-b1",
                    "type": "custom"
                }
            ]
        },
        {
            "id": "aapb",
            "type": "label",
            "label": "Автор заключения анализа барьеров"
        },
        {
            "id": "a_barier",
            "type": "check"
        },
        {
            "id": "vneshn_eksp_3",
            "type": "check"
        },
        {
            "id": "conclusion_author_3",
            "type": "entity"
        },
        {
            "id": "table_3",
            "type": "appendable_table",
            "data": [
                {
                    "id": "apb",
                    "type": "label",
                    "label": "АНАЛИЗ ПРЕДВАРИТЕЛЬНОГО БИЗНЕС ПЛАНА ПРОЕКТА – АНАЛИЗ БАРЬЕРОВ"
                },
                {
                    "id": "apb-b1",
                    "type": "label",
                    "label": "АНАЛИЗ ПРЕДВАРИТЕЛЬНОГО БИЗНЕС ПЛАНА ПРОЕКТА – АНАЛИЗ БАРЬЕРОВ"
                },
                {
                    "id": "conclusion_3-b1",
                    "type": "custom"
                }
            ]
        },
        {
            "id": "abm",
            "type": "label",
            "label": "Автор заключения анализа бизнес-модели"
        },
        {
            "id": "a_bizn_m",
            "type": "check"
        },
        {
            "id": "vneshn_eksp_4",
            "type": "check"
        },
        {
            "id": "conclusion_author_4",
            "type": "entity"
        },
        {
            "id": "table_4",
            "type": "appendable_table",
            "data": [
                {
                    "id": "bm",
                    "type": "label",
                    "label": "АНАЛИЗ БИЗНЕС-МОДЕЛИ"
                },
                {
                    "id": "bm-b1",
                    "type": "label",
                    "label": "АНАЛИЗ БИЗНЕС-МОДЕЛИ"
                },
                {
                    "id": "conclusion_4-b1",
                    "type": "custom"
                }
            ]
        },
        {
            "id": "aappbp",
            "type": "label",
            "label": "Автор заключения анализа рынка"
        },
        {
            "id": "a_rinka",
            "type": "check"
        },
        {
            "id": "vneshn_eksp_5",
            "type": "check"
        },
        {
            "id": "conclusion_author_5",
            "type": "entity"
        },
        {
            "id": "table_5",
            "type": "appendable_table",
            "data": [
                {
                    "id": "appbp",
                    "type": "label",
                    "label": "АНАЛИЗ ПРЕДВАРИТЕЛЬНОГО БИЗНЕС ПЛАНА ПРОЕКТА – АНАЛИЗ РЫНКА"
                },
                {
                    "id": "appbp-b1",
                    "type": "label",
                    "label": "АНАЛИЗ ПРЕДВАРИТЕЛЬНОГО БИЗНЕС ПЛАНА ПРОЕКТА – АНАЛИЗ РЫНКА"
                },
                {
                    "id": "conclusion_5-b1",
                    "type": "custom"
                }
            ]
        },
        {
            "id": "aafm",
            "type": "label",
            "label": "Автор заключения анализа финансовой модели"
        },
        {
            "id": "a_finan_m",
            "type": "check"
        },
        {
            "id": "vneshn_eksp_6",
            "type": "check"
        },
        {
            "id": "conclusion_author_6",
            "type": "entity"
        },
        {
            "id": "table_6",
            "type": "appendable_table",
            "data": [
                {
                    "id": "afm",
                    "type": "label",
                    "label": "АНАЛИЗ ФИНАНСОВОЙ МОДЕЛИ"
                },
                {
                    "id": "afm-b1",
                    "type": "label",
                    "label": "АНАЛИЗ ФИНАНСОВОЙ МОДЕЛИ"
                },
                {
                    "id": "conclusion_6-b1",
                    "type": "custom"
                }
            ]
        },
        {
            "id": "azsb",
            "type": "label",
            "label": "Автор заключения службы безопасности"
        },
        {
            "id": "sl_bezop",
            "type": "check"
        },
        {
            "id": "vneshn_eksp_7",
            "type": "check"
        },
        {
            "id": "conclusion_author_7",
            "type": "entity"
        },
        {
            "id": "table_7",
            "type": "appendable_table",
            "data": [
                {
                    "id": "zsb",
                    "type": "label",
                    "label": "ЗАКЛЮЧЕНИЕ СЛУЖБЫ БЕЗОПАСНОСТИ"
                },
                {
                    "id": "zsb-b1",
                    "type": "label",
                    "label": "ЗАКЛЮЧЕНИЕ СЛУЖБЫ БЕЗОПАСНОСТИ"
                },
                {
                    "id": "conclusion_7-b1",
                    "type": "custom"
                }
            ]
        },
        {
            "id": "azte",
            "type": "label",
            "label": "Автор заключения технологической экпертизы"
        },
        {
            "id": "tech_eks",
            "type": "check"
        },
        {
            "id": "vneshn_eksp_8",
            "type": "check"
        },
        {
            "id": "conclusion_author_8",
            "type": "entity"
        },
        {
            "id": "table_8",
            "type": "appendable_table",
            "data": [
                {
                    "id": "zte",
                    "type": "label",
                    "label": "ЗАКЛЮЧЕНИЕ ТЕХНОЛОГИЧЕСКОГО ЭКСПЕРТА"
                },
                {
                    "id": "zte-b1",
                    "type": "label",
                    "label": "ЗАКЛЮЧЕНИЕ ТЕХНОЛОГИЧЕСКОГО ЭКСПЕРТА"
                },
                {
                    "id": "conclusion_8-b1",
                    "type": "custom"
                }
            ]
        },
        {
            "id": "azup",
            "type": "label",
            "label": "Автор заключения юридической проверки"
        },
        {
            "id": "urid_eks",
            "type": "check"
        },
        {
            "id": "vneshn_eksp_9",
            "type": "check"
        },
        {
            "id": "conclusion_author_9",
            "type": "entity"
        },
        {
            "id": "table_9",
            "type": "appendable_table",
            "data": [
                {
                    "id": "zup",
                    "type": "label",
                    "label": "ЗАКЛЮЧЕНИЕ ПО ИТОГАМ ЮРИДИЧЕСКОЙ ПРОВЕРКИ"
                },
                {
                    "id": "zup-b1",
                    "type": "label",
                    "label": "ЗАКЛЮЧЕНИЕ ПО ИТОГАМ ЮРИДИЧЕСКОЙ ПРОВЕРКИ"
                },
                {
                    "id": "conclusion_9-b1",
                    "type": "custom"
                }
            ]
        },
        {
            "id": "h26",
            "type": "label",
            "label": "Финальное заключение по скринингу "
        },
        {
            "id": "label-84t7x2_copy8",
            "type": "label",
            "label": "Назначить работу аналитику"
        },
        {
            "id": "assing_analitik_final_report",
            "type": "listbox",
            "value": "Нет",
            "key": "1"
        },
        {
            "id": "label-id5o97_copy4",
            "type": "label",
            "label": "Аналитик"
        },
        {
            "id": "analitik_final_report",
            "type": "entity"
        },
        {
            "id": "label-1eojxp",
            "type": "label",
            "label": "Финальное заключение"
        },
        {
            "id": "final_report",
            "type": "custom"
        },
        {
            "id": "h27",
            "type": "label",
            "label": "Рассмотреть заключение пре-скрининга"
        },
        {
            "id": "label-i0hro8",
            "type": "label",
            "label": "Результат рассмотрения"
        },
        {
            "id": "consider_pre_scrining",
            "type": "listbox",
            "value": "-Выбрать-",
            "key": "0"
        },
        {
            "id": "label-u6axp2",
            "type": "label",
            "label": "Комментарий"
        },
        {
            "id": "textarea-79r5wx",
            "type": "textarea"
        },
        {
            "id": "h28",
            "type": "label",
            "label": "Рекомендации о включении проектного предложения в портфель Фонда/отклонении проектного предложения"
        },
        {
            "id": "label-rts4hh",
            "type": "label",
            "label": "Рекомендации о включении проектного предложения в портфель Фонда/отклонении проектного предложения"
        },
        {
            "id": "consider_scrining",
            "type": "listbox",
            "value": "-Выбрать-",
            "key": "0"
        },
        {
            "id": "label-u6axp2_copy1",
            "type": "label",
            "label": "Комментарий"
        },
        {
            "id": "comment_ud",
            "type": "textarea"
        },
        {
            "id": "h29",
            "type": "label",
            "label": "Решение о включении проектного предложения в портфель Фонда/отклонении проектного предложения по результатам правления"
        },
        {
            "id": "label-rts4hh_copy1",
            "type": "label",
            "label": "Решение о включении проектного предложения в портфель Фонда/отклонении проектного предложения по результатам правления"
        },
        {
            "id": "pravlenie_result",
            "type": "listbox",
            "value": "-Выбрать-",
            "key": "0"
        },
        {
            "id": "label-u6axp2_copy2",
            "type": "label",
            "label": "Комментарий"
        },
        {
            "id": "comment_pp",
            "type": "textarea"
        },
        {
            "id": "h30",
            "type": "label",
            "label": "Краткая информация по проекту"
        },
        {
            "id": "label-84t7x2_copy2",
            "type": "label",
            "label": "Назначить работу аналитику"
        },
        {
            "id": "assing_analitik_passport_project",
            "type": "listbox",
            "value": "Нет",
            "key": "1"
        },
        {
            "id": "label-id5o97_copy2",
            "type": "label",
            "label": "Аналитик"
        },
        {
            "id": "analitik_passport_project",
            "type": "entity"
        },
        {
            "id": "label-52ha6h",
            "type": "label",
            "label": "Краткая информация по проекту"
        },
        {
            "id": "passport_project",
            "type": "custom"
        },
        {
            "id": "h31",
            "type": "label",
            "label": "Видимость проекта на Витрине проектов"
        },
        {
            "id": "label-vb9ful",
            "type": "label",
            "label": "Отображать проект на Витрине проектов"
        },
        {
            "id": "visibility_project",
            "type": "listbox",
            "value": "Нет",
            "key": "1"
        },
        {
            "id": "h32",
            "type": "label",
            "label": "Проект договора и справка по проекту"
        },
        {
            "id": "label-84t7x2_copy3",
            "type": "label",
            "label": "Назначить работу аналитику"
        },
        {
            "id": "assing_analitik_spravka",
            "type": "listbox",
            "value": "Нет",
            "key": "1"
        },
        {
            "id": "label-id5o97_copy3",
            "type": "label",
            "label": "Аналитик"
        },
        {
            "id": "analitik_spravka",
            "type": "entity"
        },
        {
            "id": "label-52ha6h_copy1",
            "type": "label",
            "label": "Проект договора и справка по проекту"
        },
        {
            "id": "spravka",
            "type": "custom"
        },
        {
            "id": "h33",
            "type": "label",
            "label": "Согласовать проект договора и справку по проекту (Руководитель проекта) "
        },
        {
            "id": "label-aqezg9_copy4",
            "type": "label",
            "label": "Согласование"
        },
        {
            "id": "approve_spravka_rp",
            "type": "listbox",
            "value": "-Выбрать-",
            "key": "0"
        },
        {
            "id": "label-nebyva_copy4",
            "type": "label",
            "label": "Комментарий"
        },
        {
            "id": "textarea-9n3nse_copy4",
            "type": "textarea"
        },
        {
            "id": "table_doc_approve_spravka_rp",
            "type": "appendable_table",
            "data": [
                {
                    "id": "custom-yv9re7",
                    "type": "custom"
                }
            ]
        },
        {
            "id": "h34",
            "type": "label",
            "label": "Согласовать проект договора и справку по проекту (Управляющий директор)"
        },
        {
            "id": "label-aqezg9",
            "type": "label",
            "label": "Согласование"
        },
        {
            "id": "approve_spravka_ud",
            "type": "listbox",
            "value": "-Выбрать-",
            "key": "0"
        },
        {
            "id": "label-nebyva",
            "type": "label",
            "label": "Комментарий"
        },
        {
            "id": "textarea-9n3nse",
            "type": "textarea"
        },
        {
            "id": "table_doc_approve_spravka_ud",
            "type": "appendable_table",
            "data": [
                {
                    "id": "custom-yv9re7",
                    "type": "custom"
                }
            ]
        },
        {
            "id": "h35",
            "type": "label",
            "label": "Согласовать проект договора и справку по проекту (Юрист)"
        },
        {
            "id": "label-aqezg9_copy1",
            "type": "label",
            "label": "Согласование"
        },
        {
            "id": "approve_spravka_bek_office_urist",
            "type": "listbox",
            "value": "-Выбрать-",
            "key": "0"
        },
        {
            "id": "label-nebyva_copy1",
            "type": "label",
            "label": "Комментарий"
        },
        {
            "id": "textarea-9n3nse_copy1",
            "type": "textarea"
        },
        {
            "id": "table_doc_approve_spravka_bek_office_urist",
            "type": "appendable_table",
            "data": [
                {
                    "id": "custom-yv9re7",
                    "type": "custom"
                }
            ]
        },
        {
            "id": "h36",
            "type": "label",
            "label": "Согласовать проект договора и справку по проекту (Бухгалтер)"
        },
        {
            "id": "label-aqezg9_copy9",
            "type": "label",
            "label": "Согласование"
        },
        {
            "id": "approve_spravka_bek_office_buhgalter",
            "type": "listbox",
            "value": "-Выбрать-",
            "key": "0"
        },
        {
            "id": "label-nebyva_copy9",
            "type": "label",
            "label": "Комментарий"
        },
        {
            "id": "textarea-9n3nse_copy9",
            "type": "textarea"
        },
        {
            "id": "table_doc_approve_spravka_bek_office_buhgalter",
            "type": "appendable_table",
            "data": [
                {
                    "id": "custom-yv9re7",
                    "type": "custom"
                }
            ]
        },
        {
            "id": "h37",
            "type": "label",
            "label": "Согласовать проект договора и справку по проекту (Экономист)"
        },
        {
            "id": "label-aqezg9_copy10",
            "type": "label",
            "label": "Согласование"
        },
        {
            "id": "approve_spravka_bek_office_economist",
            "type": "listbox",
            "value": "-Выбрать-",
            "key": "0"
        },
        {
            "id": "label-nebyva_copy10",
            "type": "label",
            "label": "Комментарий"
        },
        {
            "id": "textarea-9n3nse_copy10",
            "type": "textarea"
        },
        {
            "id": "table_doc_approve_spravka_bek_office_economist",
            "type": "appendable_table",
            "data": [
                {
                    "id": "custom-yv9re7",
                    "type": "custom"
                }
            ]
        },
        {
            "id": "h38",
            "type": "label",
            "label": "Согласовать проект договора и справку по проекту (РМ)"
        },
        {
            "id": "label-aqezg9_copy11",
            "type": "label",
            "label": "Согласование"
        },
        {
            "id": "approve_spravka_bek_office_rm",
            "type": "listbox",
            "value": "-Выбрать-",
            "key": "0"
        },
        {
            "id": "label-nebyva_copy11",
            "type": "label",
            "label": "Комментарий"
        },
        {
            "id": "textarea-9n3nse_copy11",
            "type": "textarea"
        },
        {
            "id": "table_doc_approve_spravka_bek_office_rm",
            "type": "appendable_table",
            "data": [
                {
                    "id": "custom-yv9re7",
                    "type": "custom"
                }
            ]
        },
        {
            "id": "label-8u1qq9",
            "type": "label",
            "label": "юрист"
        },
        {
            "id": "urist",
            "type": "entity",
            "value": "Бактугулов Гафур Мусакбарович",
            "key": "ab9b6c54-428d-49cd-a294-e3f32ad102ce",
            "formatVersion": "V1",
            "manualTags": {}
        },
        {
            "id": "label-8u1qq9_copy1",
            "type": "label",
            "label": "буухгалтер"
        },
        {
            "id": "buhgalter",
            "type": "entity",
            "value": "Уксукбаева Балжан Тезекбаевна",
            "key": "ea9def35-ebc9-405a-841e-711dff92e1a7",
            "formatVersion": "V1",
            "manualTags": {}
        },
        {
            "id": "label-8u1qq9_copy2",
            "type": "label",
            "label": "экономист"
        },
        {
            "id": "economist",
            "type": "entity",
            "value": "Катыкбаев Бахтияр Замантаевич",
            "key": "838450a1-c7e8-4aa2-a724-46aee3d34119",
            "formatVersion": "V1",
            "manualTags": {}
        },
        {
            "id": "label-8u1qq9_copy3",
            "type": "label",
            "label": "РМ"
        },
        {
            "id": "rm",
            "type": "entity",
            "value": "Наетов Канат Абудиллаевич",
            "key": "27003f4f-31f2-4e82-89cd-7d580d6382d9",
            "formatVersion": "V1",
            "manualTags": {}
        },
        {
            "id": "label-llrpmm",
            "type": "label",
            "label": "Руководитель аппарата"
        },
        {
            "id": "ra",
            "type": "entity",
            "value": "(КППФ) Хайрулин Ербол Мейржанович",
            "key": "ebf65b7c-9069-40b3-84be-08afd460b94c",
            "formatVersion": "V1",
            "manualTags": {}
        },
        {
            "id": "h39",
            "type": "label",
            "label": "Согласовать проект договора и справку по проекту (Руководитель аппарата) "
        },
        {
            "id": "label-aqezg9_copy2",
            "type": "label",
            "label": "Согласование"
        },
        {
            "id": "approve_spravka_ra",
            "type": "listbox",
            "value": "-Выбрать-",
            "key": "0"
        },
        {
            "id": "label-nebyva_copy2",
            "type": "label",
            "label": "Комментарий"
        },
        {
            "id": "textarea-9n3nse_copy2",
            "type": "textarea"
        },
        {
            "id": "table_doc_approve_spravka_ra",
            "type": "appendable_table",
            "data": [
                {
                    "id": "custom-yv9re7",
                    "type": "custom"
                }
            ]
        },
        {
            "id": "h40",
            "type": "label",
            "label": "Утвердить проект договора и справку по проекту(Председатель правления)"
        },
        {
            "id": "label-aqezg9_copy3",
            "type": "label",
            "label": "Утвердить"
        },
        {
            "id": "approve_spravka_pp",
            "type": "listbox",
            "value": "-Выбрать-",
            "key": "0"
        },
        {
            "id": "label-nebyva_copy3",
            "type": "label",
            "label": "Комментарий"
        },
        {
            "id": "textarea-9n3nse_copy3",
            "type": "textarea"
        },
        {
            "id": "table_doc_approve_spravka_pp",
            "type": "appendable_table",
            "data": [
                {
                    "id": "custom-yv9re7",
                    "type": "custom"
                }
            ]
        },
        {
            "id": "h41",
            "type": "label",
            "label": "Проект договора для согласования с инициатором"
        },
        {
            "id": "label-84t7x2_copy4",
            "type": "label",
            "label": "Назначить работу аналитику"
        },
        {
            "id": "assing_analitik_approve_contract",
            "type": "listbox",
            "value": "Да",
            "key": "2"
        },
        {
            "id": "dfgdfg",
            "type": "label",
            "label": "Аналитик"
        },
        {
            "id": "analitik_approve_contract",
            "type": "entity"
        },
        {
            "id": "label-w64jrm",
            "type": "label",
            "label": "Согласовать проект договора посредством системы"
        },
        {
            "id": "approve_contract_system",
            "type": "listbox",
            "value": "Нет",
            "key": "1"
        },
        {
            "id": "label-syf0li",
            "type": "label",
            "label": "Уведомление о согласовании проекта договора "
        },
        {
            "id": "notif_approve_contract",
            "type": "custom"
        },
        {
            "id": "label-dtpqs5",
            "type": "label",
            "label": "Результат согласования с Инициатором "
        },
        {
            "id": "approve_iniciator_1",
            "type": "listbox",
            "value": "-Выбрать-",
            "key": "0"
        },
        {
            "id": "label-20cx3l",
            "type": "label",
            "label": "Формировать паспорт проекта"
        },
        {
            "id": "passport",
            "type": "listbox",
            "value": "-",
            "key": "0"
        },
        {
            "id": "label-437fd6",
            "type": "label",
            "label": "Комментарий"
        },
        {
            "id": "textarea-hre2ss",
            "type": "textarea"
        },
        {
            "id": "h42",
            "type": "label",
            "label": "Ответ на уведомление о согласовании проекта договора"
        },
        {
            "id": "label-g5bnik",
            "type": "label",
            "label": "Результат согласования"
        },
        {
            "id": "approve_iniciator_2",
            "type": "listbox",
            "value": "-Выбрать-",
            "key": "0"
        },
        {
            "id": "label-437fd6_copy1",
            "type": "label",
            "label": "Комментарий"
        },
        {
            "id": "textarea-hre2ss_copy1",
            "type": "textarea"
        },
        {
            "id": "h42_1",
            "type": "label",
            "label": "Результат переговоров с Инициатором "
        },
        {
            "id": "label-e2zru2",
            "type": "label",
            "label": "Результат "
        },
        {
            "id": "contact_result_2",
            "type": "listbox",
            "value": "Согласовано",
            "key": "1"
        },
        {
            "id": "label-4b10ls",
            "type": "label",
            "label": "Формировать паспорт проекта"
        },
        {
            "id": "passport3",
            "type": "listbox",
            "value": "-",
            "key": "0"
        },
        {
            "id": "h43",
            "type": "label",
            "label": "Результат согласования проекта договора "
        },
        {
            "id": "label-oi539z",
            "type": "label",
            "label": "Результат согласования"
        },
        {
            "id": "result_approve",
            "type": "listbox",
            "value": "-Выбрать-",
            "key": "0"
        },
        {
            "id": "label-20cx3l_copy1",
            "type": "label",
            "label": "Формировать паспорт проекта"
        },
        {
            "id": "passport2",
            "type": "listbox",
            "value": "-",
            "key": "0"
        },
        {
            "id": "h44",
            "type": "label",
            "label": "Завершение проекта и обновление статуса проекта в реестре"
        },
        {
            "id": "label-vb9ful_copy1",
            "type": "label",
            "label": "Отображать проект на Витрине проектов?"
        },
        {
            "id": "status_project",
            "type": "listbox",
            "value": "Нет",
            "key": "1"
        },
        {
            "id": "h45",
            "type": "label",
            "label": "Документы для принятия решения "
        },
        {
            "id": "label-84t7x2_copy5",
            "type": "label",
            "label": "Назначить работу аналитику"
        },
        {
            "id": "assing_analitik_send_doc",
            "type": "listbox",
            "value": "Нет",
            "key": "1"
        },
        {
            "id": "ghkjghjghj",
            "type": "label",
            "label": "Аналитик"
        },
        {
            "id": "analitik_send_doc",
            "type": "entity"
        },
        {
            "id": "label-7qdfi8",
            "type": "label",
            "label": "Документы должны быть направлены:"
        },
        {
            "id": "doc_way",
            "type": "listbox",
            "value": "-Выбрать-",
            "key": "0"
        },
        {
            "id": "jgjgj11",
            "type": "label",
            "label": "Члены правления:"
        },
        {
            "id": "fghjgfjgfj1",
            "type": "label",
            "label": "Председатель правления"
        },
        {
            "id": "rule_pp",
            "type": "entity"
        },
        {
            "id": "gfhjgfhj2",
            "type": "label",
            "label": "Руководитель аппарата"
        },
        {
            "id": "rule_rp",
            "type": "entity"
        },
        {
            "id": "fdhfgh3",
            "type": "label",
            "label": "Управляющий Директор 1"
        },
        {
            "id": "rule_ud1",
            "type": "entity"
        },
        {
            "id": "labelktgoo4",
            "type": "label",
            "label": "Управляющий Директор 2"
        },
        {
            "id": "rule_ud2",
            "type": "entity"
        },
        {
            "id": "label-ioiulij5",
            "type": "label",
            "label": "Управляющий Директор 3"
        },
        {
            "id": "rule_ud3",
            "type": "entity"
        },
        {
            "id": "label-dp89px",
            "type": "label",
            "label": "Документы для правления / НС"
        },
        {
            "id": "doc_for_pravlrnie",
            "type": "appendable_table",
            "data": [
                {
                    "id": "custom-270eta",
                    "type": "custom"
                }
            ]
        },
        {
            "id": "h45_1",
            "type": "label",
            "label": "Документы для Наблюдательного совета"
        },
        {
            "id": "doc_nc",
            "type": "appendable_table",
            "data": [
                {
                    "id": "custom-270eta",
                    "type": "custom"
                }
            ]
        },
        {
            "id": "h46",
            "type": "label",
            "label": "Решение Наблюдательного совета  "
        },
        {
            "id": "table_doc_vote_ns",
            "type": "appendable_table",
            "data": [
                {
                    "id": "custom-yg2a9k",
                    "type": "custom"
                }
            ]
        },
        {
            "id": "h46_1",
            "type": "label",
            "label": "Подписание договора "
        },
        {
            "id": "h47",
            "type": "label",
            "label": "Согласование пакета документов на Правление / НС (Упр. дир)"
        },
        {
            "id": "label-aqezg9_copy5",
            "type": "label",
            "label": "Согласование"
        },
        {
            "id": "approve_package_doc",
            "type": "listbox",
            "value": "-Выбрать-",
            "key": "0"
        },
        {
            "id": "label-nebyva_copy5",
            "type": "label",
            "label": "Комментарий"
        },
        {
            "id": "textarea-9n3nse_copy5",
            "type": "textarea"
        },
        {
            "id": "table_doc_approve_package_doc",
            "type": "appendable_table",
            "data": [
                {
                    "id": "custom-yv9re7",
                    "type": "custom"
                }
            ]
        },
        {
            "id": "h47_1",
            "type": "label",
            "label": "Согласование пакета документов на Правление / НС (Юрист)"
        },
        {
            "id": "label-aqezg9_copy12",
            "type": "label",
            "label": "Согласование"
        },
        {
            "id": "approve_package_doc_urist",
            "type": "listbox",
            "value": "-Выбрать-",
            "key": "0"
        },
        {
            "id": "label-nebyva_copy12",
            "type": "label",
            "label": "Комментарий"
        },
        {
            "id": "textarea-9n3nse_copy12",
            "type": "textarea"
        },
        {
            "id": "table_doc_approve_package_doc_urist",
            "type": "appendable_table",
            "data": [
                {
                    "id": "custom-yv9re7",
                    "type": "custom"
                }
            ]
        },
        {
            "id": "h48",
            "type": "label",
            "label": " Правление"
        },
        {
            "id": "fghjgfhj67",
            "type": "label",
            "label": "Председатель правления"
        },
        {
            "id": "voting_pp",
            "type": "entity"
        },
        {
            "id": "decision_pp",
            "type": "listbox",
            "value": "-Выбрать-",
            "key": "0"
        },
        {
            "id": "fthfthjrtyu8",
            "type": "label",
            "label": "Руководитель аппарата"
        },
        {
            "id": "voting_ra",
            "type": "entity"
        },
        {
            "id": "decision_ra",
            "type": "listbox",
            "value": "-Выбрать-",
            "key": "0"
        },
        {
            "id": "label-dw4wmxty8",
            "type": "label",
            "label": "Управляющий Директор "
        },
        {
            "id": "voting_ud1",
            "type": "entity"
        },
        {
            "id": "decision__ud1",
            "type": "listbox",
            "value": "-Выбрать-",
            "key": "0"
        },
        {
            "id": "jlkjlkjljk66",
            "type": "label",
            "label": "Управляющий Директор "
        },
        {
            "id": "voting_ud2",
            "type": "entity"
        },
        {
            "id": "decision_ud2",
            "type": "listbox",
            "value": "-Выбрать-",
            "key": "0"
        },
        {
            "id": "lahlhjl67",
            "type": "label",
            "label": "Управляющий Директор "
        },
        {
            "id": "voting_ud3",
            "type": "entity"
        },
        {
            "id": "decision_ud3",
            "type": "listbox",
            "value": "-Выбрать-",
            "key": "0"
        },
        {
            "id": "h49",
            "type": "label",
            "label": "Результат голосования и ответ "
        },
        {
            "id": "fghfgh",
            "type": "label",
            "label": "Результат голосования: "
        },
        {
            "id": "totals_vote",
            "type": "listbox",
            "value": "-Выбрать-",
            "key": "0"
        },
        {
            "id": "h50",
            "type": "label",
            "label": "Мотивированный отказ"
        },
        {
            "id": "label-84t7x2_copy9",
            "type": "label",
            "label": "Назначить работу аналитику"
        },
        {
            "id": "assing_analitik_otkaz2",
            "type": "listbox",
            "value": "Нет",
            "key": "1"
        },
        {
            "id": "fjhgjghj_copy1",
            "type": "label",
            "label": "Аналитик"
        },
        {
            "id": "analitik_otkaz2",
            "type": "entity"
        },
        {
            "id": "gfjgfj_copy2",
            "type": "label",
            "label": "Сформировать мотивированный отказ"
        },
        {
            "id": "otkaz2",
            "type": "custom"
        },
        {
            "id": "h51",
            "type": "label",
            "label": "Копия подписанного договора"
        },
        {
            "id": "label-84t7x2_copy7",
            "type": "label",
            "label": "Назначить работу аналитику"
        },
        {
            "id": "assing_analitik_download_contract",
            "type": "listbox",
            "value": "Нет",
            "key": "1"
        },
        {
            "id": "table_download_contract",
            "type": "appendable_table",
            "data": [
                {
                    "id": "custom-c6m464",
                    "type": "custom"
                }
            ]
        },
        {
            "id": "h51_1",
            "type": "label",
            "label": "Паспорт проекта"
        },
        {
            "id": "label-84t7x2_copy13",
            "type": "label",
            "label": "Назначить работу аналитику"
        },
        {
            "id": "assing_analitik_passport",
            "type": "listbox",
            "value": "Нет",
            "key": "1"
        },
        {
            "id": "retret_copy4",
            "type": "label",
            "label": "Аналитик"
        },
        {
            "id": "analitik_passport",
            "type": "entity"
        },
        {
            "id": "label-52ha6h_copy2",
            "type": "label",
            "label": "Паспорт проекта"
        },
        {
            "id": "passport_project_copy1",
            "type": "custom"
        },
        {
            "id": "h52",
            "type": "label",
            "label": "Согласовать мотивированный отказ  (Руководитель проекта)"
        },
        {
            "id": "label-aqezg9_copy6",
            "type": "label",
            "label": "Согласование"
        },
        {
            "id": "approve_otkaz_rp",
            "type": "listbox",
            "value": "-Выбрать-",
            "key": "0"
        },
        {
            "id": "label-nebyva_copy6",
            "type": "label",
            "label": "Комментарий"
        },
        {
            "id": "textarea-9n3nse_copy6",
            "type": "textarea"
        },
        {
            "id": "table_doc_approve_otkaz",
            "type": "appendable_table",
            "data": [
                {
                    "id": "custom-yv9re7",
                    "type": "custom"
                }
            ]
        },
        {
            "id": "h53",
            "type": "label",
            "label": "Согласовать мотивированный отказ  (Управляющий директор)"
        },
        {
            "id": "label-aqezg9_copy7",
            "type": "label",
            "label": "Согласование"
        },
        {
            "id": "approve_otkaz_ud",
            "type": "listbox",
            "value": "-Выбрать-",
            "key": "0"
        },
        {
            "id": "label-nebyva_copy7",
            "type": "label",
            "label": "Комментарий"
        },
        {
            "id": "textarea-9n3nse_copy7",
            "type": "textarea"
        },
        {
            "id": "table_doc_approve_otkaz_ud",
            "type": "appendable_table",
            "data": [
                {
                    "id": "custom-yv9re7",
                    "type": "custom"
                }
            ]
        },
        {
            "id": "h54",
            "type": "label",
            "label": "Утвердить мотивированный отказ  (Председатель правления)"
        },
        {
            "id": "label-aqezg9_copy8",
            "type": "label",
            "label": "Утвердить"
        },
        {
            "id": "approve_otkaz_pp",
            "type": "listbox",
            "value": "-Выбрать-",
            "key": "0"
        },
        {
            "id": "label-nebyva_copy8",
            "type": "label",
            "label": "Комментарий"
        },
        {
            "id": "textarea-9n3nse_copy8",
            "type": "textarea"
        },
        {
            "id": "table_doc_approve_otkaz_pp",
            "type": "appendable_table",
            "data": [
                {
                    "id": "custom-yv9re7",
                    "type": "custom"
                }
            ]
        },
        {
            "id": "h55",
            "type": "label",
            "label": "Итоговый комплект ПД"
        },
        {
            "id": "label-84t7x2_copy10",
            "type": "label",
            "label": "Назначить работу аналитику"
        },
        {
            "id": "assing_analitik_download_pd",
            "type": "listbox",
            "value": "Нет",
            "key": "1"
        },
        {
            "id": "retret_copy1",
            "type": "label",
            "label": "Аналитик"
        },
        {
            "id": "analitik_download_pd",
            "type": "entity"
        },
        {
            "id": "table_doc_pd",
            "type": "appendable_table",
            "data": [
                {
                    "id": "custom-yv9re7",
                    "type": "custom"
                }
            ]
        },
        {
            "id": "h56",
            "type": "label",
            "label": "Акты выполненных работ"
        },
        {
            "id": "label-84t7x2_copy11",
            "type": "label",
            "label": "Назначить работу аналитику"
        },
        {
            "id": "assing_analitik_download_avr",
            "type": "listbox",
            "value": "Нет",
            "key": "1"
        },
        {
            "id": "retret_copy2",
            "type": "label",
            "label": "Аналитик"
        },
        {
            "id": "analitik_download_avr",
            "type": "entity"
        },
        {
            "id": "table_doc_avr",
            "type": "appendable_table",
            "data": [
                {
                    "id": "custom-yv9re7",
                    "type": "custom"
                }
            ]
        },
        {
            "id": "h57",
            "type": "label",
            "label": "Обновить статус на витрине"
        },
        {
            "id": "label-84t7x2_copy12",
            "type": "label",
            "label": "Назначить работу аналитику"
        },
        {
            "id": "assing_analitik_portfel",
            "type": "listbox",
            "value": "Нет",
            "key": "1"
        },
        {
            "id": "retret_copy3",
            "type": "label",
            "label": "Аналитик"
        },
        {
            "id": "analitik_portfel",
            "type": "entity"
        },
        {
            "id": "label-vb9ful_copy2",
            "type": "label",
            "label": "Отображать проект на Витрине проектов? "
        },
        {
            "id": "status_project_3",
            "type": "listbox",
            "value": "Нет",
            "key": "1"
        },
        {
            "id": "label-vb9ful_copy3",
            "type": "label",
            "label": "Портфель проекта"
        },
        {
            "id": "portfel",
            "type": "custom"
        },
        {
            "id": "h58",
            "type": "label",
            "label": "Запрос дополнительных данных"
        },
        {
            "id": "label-bbmbi3",
            "type": "label",
            "label": "Запрос дополнительных данных"
        },
        {
            "id": "request_document_2",
            "type": "custom"
        },
        {
            "id": "history",
            "type": "custom"
        },
        {
            "id": "filesHistory",
            "type": "appendable_table"
        },
        {
            "id": "label-82skwc",
            "type": "label",
            "label": "Ответить до"
        },
        {
            "id": "answer_date",
            "type": "date"
        },
        {
            "id": "label-lwaohb",
            "type": "label",
            "label": "Статус ответа"
        },
        {
            "id": "answer_status",
            "type": "listbox",
            "value": "",
            "key": "0"
        },
        {
            "id": "label-y5sid8",
            "type": "label",
            "label": "Договор подписан"
        },
        {
            "id": "contract",
            "type": "listbox",
            "value": "Да",
            "key": "1"
        },
        {
            "id": "label-obrgp4",
            "type": "label",
            "label": "Решение Наблюдательного совета"
        },
        {
            "id": "vote_ns",
            "type": "listbox",
            "value": "Согласовать ",
            "key": "1"
        },
        {
            "id": "grouped-panel",
            "type": "custom"
        },
        {
            "id": "retret",
            "type": "label",
            "label": "Аналитик"
        },
        {
            "id": "analitik_download_contract",
            "type": "entity"
        },
        {
            "id": "label-0tv7ho",
            "type": "label",
            "label": "скрыть показать"
        }
    ]
}